<?xml version="1.0" encoding="UTF-8"?>
<svg width="42px" height="42px" viewBox="0 0 42 42" version="1.1" xmlns="http://www.w3.org/2000/svg" xmlns:xlink="http://www.w3.org/1999/xlink">
    <!-- Generator: sketchtool 58 (101010) - https://sketch.com -->
    <title>597AFB6E-8EAE-4723-9763-A542A1067506</title>
    <desc>Created with sketchtool.</desc>
    <g id="Asset-Artboard-Page" stroke="none" stroke-width="1" fill="none" fill-rule="evenodd">
        <g id="ICON-/-Recomendadas-Copy-ICON-/-LeMills">
            <rect x="0" y="0" width="42" height="42"></rect>
            <path d="M26.0404617,4.2 C26.3342971,4.2 26.5907039,4.41852279 26.6358763,4.70846937 C26.6603984,4.86662205 26.6208188,5.02477472 26.5253116,5.15401777 C26.4293741,5.28326082 26.2886945,5.367864 26.1282251,5.39209708 C17.1567333,6.75628264 17.8797,13.5328506 17.9397036,13.991928 L17.9417042,14.0067415 L18.7509347,24.2433012 C18.7509347,24.2832645 18.749644,24.3036713 18.7483534,24.323653 C18.747493,24.3449101 18.7466325,24.3640414 18.743621,24.3827477 C18.7410398,24.4001785 18.7363074,24.4159087 18.7320053,24.4320641 L18.7228633,24.4675634 L18.7130759,24.4992365 L13.9372828,36.0439569 C13.7406755,36.464422 13.7656278,37.026034 14.204445,37.2279763 C14.3102773,37.2764424 14.4204118,37.3006755 14.5322672,37.3006755 C14.6303557,37.3006755 14.7288745,37.2819693 14.8235213,37.2445568 C15.0009841,37.175117 15.1512599,37.0475155 15.2559251,36.8794665 L15.3131035,36.7739251 L20.5173887,26.7847978 C20.5367483,26.7490859 20.5573985,26.71635 20.5819207,26.6861649 C20.6051522,26.6568302 20.6301045,26.6338725 20.6550569,26.6117651 C20.6725522,26.5958932 20.6848849,26.5868235 20.6953694,26.5797693 L20.7101241,26.5701013 L20.7897135,26.5190843 L20.8503735,26.4982523 C20.8813488,26.4869152 20.8989398,26.4820025 20.9121967,26.4791052 L20.9299629,26.4757198 L20.9962157,26.4638159 L21.0852697,26.4625404 L21.1472204,26.4693427 C21.180777,26.4755781 21.1994195,26.4787903 21.2129633,26.4817505 L21.2306817,26.4863484 L21.3373745,26.5284374 L21.3812562,26.557347 C21.4118013,26.5764784 21.4281494,26.5862566 21.4423464,26.5981606 C21.4806354,26.6325971 21.5055877,26.656405 21.5270984,26.6827638 L21.5628598,26.7317082 L21.5924907,26.7822469 L26.7873112,36.7518177 C26.8991666,36.9881964 27.0729726,37.1603788 27.2876488,37.244982 C27.3822956,37.2819693 27.4803842,37.3006755 27.5793331,37.3006755 C27.6911885,37.3006755 27.801323,37.2764424 27.9071553,37.2279763 C28.2975239,37.0482395 28.3708077,36.568559 28.2261505,36.1677935 L28.1855031,36.0694654 L23.4036869,24.5166673 C23.3965884,24.4962605 23.3802941,24.435917 23.3725906,24.4070206 L23.3684095,24.3912505 L23.3641073,24.3342815 L23.3606656,24.2984634 L23.3598052,24.2747617 L23.3658282,24.2262956 L23.3697539,24.1893614 L23.3752929,24.1552969 L25.0674329,17.4703603 L25.0922953,17.3962209 C22.7449128,16.594138 20.1159344,16.2116304 20.0858145,16.2073054 C19.7792439,16.16376 19.5637299,15.8656413 19.6050832,15.542819 C19.6424601,15.2513997 19.8810365,15.031579 20.1601708,15.031579 C20.1852213,15.031579 20.2102718,15.0332538 20.23572,15.0370222 C20.3923851,15.0596323 24.1098023,15.6006004 26.7910028,16.8006118 C26.872914,16.8370392 26.946475,16.8944019 27.0029381,16.966838 L27.0029381,16.966838 L29.9704303,20.7351918 C30.1545317,20.9692485 30.1410124,21.3092377 29.9390177,21.5257087 L29.9390177,21.5257087 L26.8935096,25.0879564 C26.7873431,25.2018444 26.6449926,25.2646503 26.4938942,25.2646503 C26.3455793,25.2646503 26.2064097,25.2043567 26.1006409,25.0950744 C25.9940768,24.9849548 25.9344327,24.8371515 25.9328422,24.6792994 C25.9316493,24.5218659 25.9889076,24.3728066 26.0938812,24.2605934 L26.0938812,24.2605934 L28.7847058,21.0785307 L26.2283602,17.8318846 L26.226,17.83 L24.6018298,24.2437264 L29.2971731,35.5903308 C29.5411038,36.1098539 29.5828345,36.6740168 29.4167723,37.1846119 C29.2520008,37.6939315 28.896645,38.0952652 28.417818,38.3150634 C28.1506558,38.4379293 27.8684362,38.5 27.5793331,38.5 C27.3280888,38.5 27.0794258,38.4528093 26.8402274,38.358853 C26.3939532,38.1838836 26.0238215,37.8611119 25.7824065,37.4407011 L25.6980122,37.2785682 L21.0560153,28.3697257 L16.4024026,37.3006755 C16.1778314,37.7810855 15.7661177,38.1649884 15.2713729,38.358853 C15.0321745,38.4528093 14.7835115,38.5 14.5326974,38.5 C14.2435943,38.5 13.9613747,38.4379293 13.6937823,38.3150634 C12.7426989,37.8784043 12.3517714,36.7576485 12.7615934,35.7133983 L12.8256127,35.5648223 L17.5304207,24.1948351 L16.736678,14.1457628 C16.6428916,13.2818751 16.1077067,5.70287559 25.944094,4.20765255 C25.9767902,4.20212571 26.0090561,4.2 26.0404617,4.2 Z M14.2038245,8.71897559 C14.4226351,8.71897559 14.6136979,8.88229074 14.6469952,9.09793015 C14.6652294,9.21526337 14.6358961,9.33338937 14.5645448,9.4293172 C14.4931935,9.52603782 14.388545,9.58866839 14.2696262,9.6069026 C7.50393931,10.6351538 8.14530803,15.7994007 8.17543413,16.0190041 L8.77795605,23.6377349 C8.77795605,23.6670683 8.77716325,23.6829241 8.77637046,23.6979871 C8.77557767,23.7130502 8.77478488,23.7273204 8.7724065,23.7415907 C8.77082092,23.7542754 8.76764975,23.7661672 8.76447858,23.7780591 C8.75892904,23.7970861 8.75496508,23.812942 8.75020833,23.828005 L5.19532901,32.4210772 C5.04945528,32.7342301 5.0676895,33.1520314 5.3943198,33.3018691 C5.47280621,33.3383375 5.55446379,33.3565718 5.63849974,33.3565718 C5.7114366,33.3565718 5.78437347,33.3423015 5.85493195,33.3145538 C6.01349035,33.252716 6.14271545,33.1282477 6.21961627,32.9641397 L10.0924052,25.5293366 C10.1074682,25.5023817 10.1225313,25.4785979 10.1407655,25.4556069 C10.1582069,25.4342016 10.1764411,25.4175529 10.1954681,25.4009043 C10.2152879,25.3826701 10.2255942,25.3763277 10.2366933,25.3691926 L10.2953599,25.3319314 L10.3405491,25.3160756 C10.3754319,25.3033909 10.3873238,25.3018053 10.4000085,25.2994269 L10.4491616,25.2907062 L10.5157561,25.2891206 L10.561738,25.2946702 C10.5989993,25.3018053 10.6116839,25.3033909 10.6235758,25.3073548 L10.702855,25.3382737 L10.7353595,25.3596791 C10.7583505,25.3739494 10.7710351,25.3818773 10.7813414,25.390598 C10.8098819,25.4159673 10.8281161,25.4334088 10.8447648,25.4532286 C10.8637918,25.4778051 10.8804404,25.5015889 10.8931251,25.527751 L13.1311769,29.8310258 C13.1282059,29.8176879 12.698587,30.8541314 12.698587,30.8541314 L10.4935579,26.7090111 L7.02984969,33.3565718 C6.86336337,33.7141209 6.55655287,33.999526 6.18869738,34.1438142 C6.01031918,34.2135799 5.82559865,34.2492555 5.63849974,34.2492555 C5.42365311,34.2492555 5.21356323,34.2032736 5.01377965,34.1113097 C4.27251913,33.771202 3.98869959,32.8713831 4.36765417,32.0643208 L7.86941642,23.6012665 L7.27878638,16.122067 C7.20902068,15.4791127 6.8110391,9.83839786 14.1316804,8.72531793 C14.156257,8.72056118 14.1800407,8.71897559 14.2038245,8.71897559 Z M9.82681992,16.7808777 C9.84584693,16.7808777 9.86408114,16.7824633 9.88310815,16.7856345 C9.99964857,16.8022831 12.1060969,16.9196163 14.1015543,17.8130929 C14.1015543,17.8130929 14.5930854,17.9962279 14.3433559,18.8659207 L13.1327625,23.6377357 L14.5182068,26.4040438 C14.1853938,27.2178338 14.0189873,27.6247287 14.0189873,27.6247287 L12.2408715,23.8414832 C12.2345292,23.8208706 12.2147094,23.7479338 12.2147094,23.7479338 L12.2115382,23.705123 C12.2091599,23.6829248 12.2083671,23.6718257 12.2083671,23.6615194 L12.2131238,23.625051 C12.2147094,23.606024 12.216295,23.5885826 12.2202589,23.5719339 L13.4792126,18.5963714 C13.4839694,18.5773444 13.4903117,18.5591102 13.4974468,18.540876 C11.7501333,17.9446964 9.79352266,17.6592913 9.77211727,17.6561201 C9.54379318,17.6236156 9.3828564,17.4024267 9.41377529,17.1614179 C9.44152301,16.9449857 9.61910842,16.7808777 9.82681992,16.7808777 Z M12.2321508,11.8544679 C13.3095551,11.8544679 14.1863831,12.7590436 14.1863831,13.8705379 C14.1863831,14.9812395 13.3095551,15.8858152 12.2321508,15.8858152 C11.1547464,15.8858152 10.2787112,14.9812395 10.2787112,13.8705379 C10.2787112,12.7590436 11.1547464,11.8544679 12.2321508,11.8544679 Z M12.2321507,12.7186112 C11.6169441,12.7186112 11.1158996,13.2355116 11.1158996,13.8705379 C11.1158996,14.5047715 11.6169441,15.0216719 12.2321507,15.0216719 C12.8473573,15.0216719 13.3484018,14.5047715 13.3484018,13.8705379 C13.3484018,13.2355116 12.8473573,12.7186112 12.2321507,12.7186112 Z M23.3916669,8.41228065 C24.8392684,8.41228065 26.0166669,9.62695252 26.0166669,11.1203813 C26.0166669,12.6133983 24.8392684,13.8280702 23.3916669,13.8280702 C21.9440654,13.8280702 20.7666669,12.6133983 20.7666669,11.1203813 C20.7666669,9.62695252 21.9440654,8.41228065 23.3916669,8.41228065 Z M23.391667,9.57301283 C22.5650933,9.57301283 21.89218,10.2672287 21.89218,11.1203813 C21.89218,11.9731221 22.5650933,12.667338 23.391667,12.667338 C24.2182407,12.667338 24.8911539,11.9731221 24.8911539,11.1203813 C24.8911539,10.2672287 24.2182407,9.57301283 23.391667,9.57301283 Z M36.4373731,8.4 C36.077805,8.4 35.9579489,8.64898596 35.9313143,8.68829953 C35.9313143,8.68829953 34.2799644,12.8162246 34.2533297,12.8293292 C34.2533297,12.8686427 34.2266951,12.8948518 34.2133777,12.8948518 C34.1734257,12.8948518 34.1734257,12.8686427 34.1734257,12.8293292 C34.1734257,12.8031201 33.7206362,8.75382215 33.7206362,8.75382215 C33.7206362,8.68829953 33.6274149,8.4 33.3077988,8.4 C32.9748653,8.4 30.0317338,8.4 30.0317338,8.4 L28.7,16.8 L30.910678,16.8 L31.7496703,11.2960998 L32.4954412,16.3282371 C32.5353932,16.7475819 32.881644,16.7868955 32.9881827,16.7868955 C33.2811641,16.7868955 33.7605883,16.7868955 34.0935217,16.7868955 C34.2932818,16.7868955 34.4797245,16.6820593 34.5862632,16.4330733 L37.0766053,11.2960998 L36.2109784,16.8 L38.5148777,16.8 L39.8999606,8.4 C39.9131982,8.4 36.5971811,8.4 36.4373731,8.4 Z" id="Combined-Shape" fill="#FFFFFF"></path>
        </g>
    </g>
</svg>