<?xml version="1.0" encoding="UTF-8"?>
<svg width="60px" height="60px" viewBox="0 0 60 60" version="1.1" xmlns="http://www.w3.org/2000/svg" xmlns:xlink="http://www.w3.org/1999/xlink">
    <!-- Generator: sketchtool 58 (101010) - https://sketch.com -->
    <title>B5FDA2AD-177B-46E9-AB46-CF8C2FD83943</title>
    <desc>Created with sketchtool.</desc>
    <g id="Asset-Artboard-Page" stroke="none" stroke-width="1" fill="none" fill-rule="evenodd">
        <g id="ICON-/-Recomendadas-Copy-ICON-/-Sem-Actividade">
            <rect x="0" y="0" width="60" height="60"></rect>
            <path d="M36.18872,16.55936 C38.0662917,16.6748233 41.5570469,18.1275754 41.8528634,22.8169071 L41.86736,23.12064 L41.86824,33.21864 C41.86824,36.72016 39.02056,39.56784 35.51904,39.56784 L35.4389833,39.5679322 C34.5464587,39.5689599 26.4444768,39.5782881 23.9511065,39.581113 L23.22456,39.58192 C22.3111689,39.58192 21.8090854,40.3527294 21.7561175,41.1582069 L21.75144,41.30056 L21.75144,54.88072 C21.75144,55.70176 21.08528,56.3688 20.26336,56.3688 C19.4897882,56.3688 18.8541907,55.7794862 18.7820913,55.0241815 L18.77528,54.88072 L18.77528,41.30056 C18.77528,38.62272 20.61536,36.61192 22.9808,36.61192 C23.0486857,36.60136 32.2126106,36.5946792 34.8294894,36.5929859 L35.51992,36.59256 C37.3173787,36.59256 38.7924914,35.1781849 38.888835,33.4050629 L38.89384,33.2204 L38.89384,23.1708 C38.7856,19.91304 36.44568,19.5672 35.9784,19.53112 C35.94144,19.5276 35.886,19.52232 35.84992,19.51704 C35.776,19.5056 33.38416,19.3076 31.56344,23.12064 L31.54122,23.16486 L31.54122,23.16486 L31.51768,23.20776 L25.98864,33.0532 C25.5856,33.76952 24.67656,34.02472 23.962,33.62168 C23.2878165,33.2431765 23.0220991,32.415672 23.3291881,31.7231612 L23.39352,31.59504 L28.8988,21.79008 C31.50624,16.37808 35.47416,16.49248 36.18872,16.55936 Z M26.50256,42.5484 L40.38016,42.5484 C41.2012,42.5484 41.86824,43.21544 41.86824,44.0356 C41.86824,44.8075153 41.2789262,45.4437949 40.5236215,45.5159803 L40.38016,45.5228 L26.50256,45.5228 C25.68064,45.5228 25.01448,44.85576 25.01448,44.0356 C25.01448,43.2636847 25.6045733,42.6274051 26.3592361,42.5552197 L26.50256,42.5484 L40.38016,42.5484 Z M37,4 C39.7614237,4 42,6.23857625 42,9 C42,11.7614237 39.7614237,14 37,14 C34.2385763,14 32,11.7614237 32,9 C32,6.23857625 34.2385763,4 37,4 Z M37,6.5 C35.6192881,6.5 34.5,7.61928813 34.5,9 C34.5,10.3807119 35.6192881,11.5 37,11.5 C38.3807119,11.5 39.5,10.3807119 39.5,9 C39.5,7.61928813 38.3807119,6.5 37,6.5 Z" id="Combined-Shape" fill="#FFFFFF"></path>
        </g>
    </g>
</svg>