<?xml version="1.0" encoding="UTF-8"?>
<svg width="60px" height="60px" viewBox="0 0 60 60" version="1.1" xmlns="http://www.w3.org/2000/svg" xmlns:xlink="http://www.w3.org/1999/xlink">
    <!-- Generator: Sketch 64 (93537) - https://sketch.com -->
    <title>ICON / Outras Aulas</title>
    <desc>Created with Sketch.</desc>
    <defs>
        <linearGradient x1="50%" y1="0.409100507%" x2="50%" y2="100%" id="linearGradient-1">
            <stop stop-color="#C866FF" offset="0%"></stop>
            <stop stop-color="#7E1AC7" offset="100%"></stop>
        </linearGradient>
        <path d="M42.20066,6 C42.6204249,6 42.9867204,6.31217541 43.0512524,6.72638481 C43.086284,6.95231721 43.0297417,7.17824961 42.8933028,7.36288253 C42.7562492,7.54751546 42.5552784,7.66837715 42.3260363,7.70299582 C29.4721443,9.6575307 30.5485869,19.3893228 30.6288755,19.9939896 L30.6310062,20.0096308 L31.7870497,34.6332875 C31.7870497,34.6903779 31.785206,34.7195305 31.7833622,34.7480757 C31.782133,34.778443 31.7809038,34.8057735 31.7766017,34.8324967 C31.7729142,34.8573978 31.7661537,34.8798696 31.7600078,34.9029487 L31.7469478,34.953662 L31.7469478,34.953662 L31.7329658,34.9989093 L24.910404,51.491367 C24.6295364,52.0920314 24.6651827,52.8943343 25.2920643,53.1828233 C25.4432534,53.2520606 25.6005884,53.2866793 25.7603817,53.2866793 C25.9005082,53.2866793 26.0412493,53.2599561 26.1764591,53.2065097 C26.4372208,53.1044758 26.6568927,52.9145379 26.8068347,52.6642337 L26.8758623,52.5341787 L34.3105556,38.2639968 C34.3382122,38.2129798 34.3677125,38.1662143 34.4027441,38.1230928 C34.435932,38.0811859 34.4715782,38.0483893 34.5072244,38.0168073 C34.5322177,37.9941331 34.5498359,37.9811764 34.5648137,37.971099 L34.5858919,37.9572875 L34.699591,37.8844061 L34.7862482,37.8546462 C34.8360299,37.8364258 34.8616122,37.829821 34.881404,37.8258637 L34.8999473,37.8224569 L34.9945941,37.8054512 L35.1218142,37.8036292 L35.2103152,37.8133467 C35.2642454,37.8233679 35.2912105,37.827923 35.3111751,37.8326489 L35.3295456,37.8376405 L35.4819639,37.8977677 L35.544652,37.9390672 C35.5882879,37.9663977 35.6116423,37.9803666 35.6319238,37.9973723 C35.6866223,38.0465673 35.7222685,38.0805786 35.752998,38.118234 L35.8040858,38.1881546 L35.8040858,38.1881546 L35.8464156,38.2603528 L43.267588,52.5025967 C43.4273813,52.8402806 43.6756756,53.0862554 43.982356,53.2071171 C44.1175657,53.2599561 44.2576922,53.2866793 44.3990479,53.2866793 C44.5588412,53.2866793 44.7161762,53.2520606 44.8673653,53.1828233 C45.431231,52.9232035 45.5319965,52.2255178 45.3160691,51.6492348 L45.265005,51.5278077 L38.4338389,35.0238104 C38.4230221,34.9927143 38.3972585,34.8967052 38.3873857,34.8595454 L38.3834425,34.8446436 L38.3772966,34.7632593 C38.3744285,34.7341068 38.3723799,34.7152116 38.3715149,34.6997355 L38.3711507,34.678231 L38.379755,34.6089937 L38.3853631,34.5562306 L38.3853631,34.5562306 L38.3932759,34.507567 L40.8106188,24.9576575 L40.8449609,24.8513426 C37.4918552,23.7057837 33.7370441,23.1594712 33.6940207,23.1532934 C33.2560627,23.0910856 32.9481856,22.6652018 33.0072616,22.2040271 C33.0606573,21.7877137 33.4014807,21.4736842 33.800244,21.4736842 C33.8360304,21.4736842 33.8718169,21.4760768 33.9081714,21.4814602 C34.1319787,21.5137604 39.4425746,22.286572 43.2728611,24.0008739 C43.3898771,24.0529131 43.4949643,24.1348598 43.5756259,24.23834 L43.5756259,24.23834 L47.8149004,29.6217026 C48.0779024,29.9560693 48.0585891,30.4417682 47.7700253,30.7510125 L47.7700253,30.7510125 L43.4192995,35.8399378 C43.2676331,36.002635 43.0642751,36.0923577 42.8484203,36.0923577 C42.6365418,36.0923577 42.4377282,36.0062239 42.2866298,35.8501064 C42.1343954,35.6927926 42.0491896,35.4816451 42.0469174,35.256142 C42.0452133,35.0312371 42.1270109,34.8182952 42.2769732,34.6579906 L42.2769732,34.6579906 L46.1210083,30.1121868 L42.469086,25.4741208 L42.466,25.473 L40.1454716,34.6338948 L46.8531051,50.8433297 C47.2015776,51.5855055 47.2611928,52.3914525 47.0239611,53.1208741 C46.7885732,53.8484736 46.280922,54.4218074 45.5968835,54.7358049 C45.2152232,54.9113276 44.8120523,55 44.3990479,55 C44.0401274,55 43.6848945,54.9325847 43.3431825,54.7983614 C42.6911586,54.5427243 42.1529099,54.0662344 41.8087812,53.4455514 L41.7114465,53.2550974 L35.0800221,40.5281796 L28.4320038,53.2866793 C28.1111879,53.9729793 27.5230254,54.521412 26.8162471,54.7983614 C26.4745351,54.9325847 26.1193022,55 25.7609963,55 C25.347992,55 24.944821,54.9113276 24.5625461,54.7358049 C23.1918742,54.1065053 22.6356004,52.4826126 23.2466032,50.9797015 L23.3223038,50.806889 L30.0434584,34.5640501 L28.9095401,20.2082326 C28.7755595,18.9741073 28.0110098,8.14696513 42.0629919,6.01093221 C42.1097007,6.00303673 42.155795,6 42.20066,6 Z M25.2911779,12.4556794 C25.6037644,12.4556794 25.8767114,12.6889867 25.9242789,12.997043 C25.9503278,13.1646619 25.9084231,13.3334134 25.8064927,13.4704531 C25.7045623,13.6086254 25.5550644,13.6980977 25.3851804,13.7241466 C15.7199133,15.1930769 16.6361544,22.5705727 16.6791916,22.8842918 L17.5399372,33.7681934 C17.5399372,33.8100982 17.5388047,33.8327494 17.5376721,33.854268 C17.5365396,33.8757866 17.535407,33.8961727 17.5320093,33.9165588 C17.5297442,33.9346798 17.525214,33.9516682 17.5206837,33.9686566 C17.5127558,33.995838 17.507093,34.0184892 17.5002976,34.0400078 L12.4218986,46.3158257 C12.2135076,46.7631869 12.2395564,47.360046 12.7061712,47.5740998 C12.8182946,47.6261976 12.9349483,47.6522465 13.0549996,47.6522465 C13.1591952,47.6522465 13.2633907,47.6318604 13.3641885,47.5922208 C13.5907005,47.5038811 13.7753078,47.3260692 13.8851661,47.0916293 L19.4177217,36.4704816 C19.4392404,36.4319746 19.460759,36.3979978 19.4868079,36.3651535 C19.5117242,36.3345744 19.5377731,36.3107906 19.5649545,36.2870069 C19.5932685,36.260958 19.6079918,36.2518975 19.6238476,36.2417045 L19.7076571,36.1884742 L19.772213,36.165823 C19.8220456,36.147702 19.839034,36.1454369 19.857155,36.1420392 L19.9273737,36.129581 L20.0225088,36.1273159 L20.0881972,36.1352438 C20.1414276,36.1454369 20.1595485,36.147702 20.1765369,36.1533648 L20.2897929,36.1975346 L20.3362279,36.2281138 C20.3690721,36.2484998 20.3871931,36.2598254 20.4019164,36.2722836 C20.4426885,36.3085255 20.4687374,36.3334418 20.4925212,36.3617558 C20.5197026,36.3968652 20.5434864,36.430842 20.5616073,36.4682165 L23.7588242,42.6157522 C23.7545799,42.596698 23.1408386,44.0773315 23.1408386,44.0773315 L19.9907971,38.1557309 L15.0426424,47.6522465 C14.8048048,48.163031 14.3665041,48.5707526 13.8409963,48.7768786 C13.5861703,48.8765438 13.3222838,48.927509 13.0549996,48.927509 C12.7480759,48.927509 12.4479475,48.8618206 12.1625424,48.7304436 C11.1035988,48.2445754 10.6981423,46.9591198 11.239506,45.8061737 L16.2420235,33.7160957 L15.3982663,23.0315246 C15.298601,22.1130185 14.7300559,14.0548541 25.1881149,12.4647398 C25.2232243,12.4579445 25.2572011,12.4556794 25.2911779,12.4556794 Z M19.0383141,23.972682 C19.0654956,23.972682 19.0915444,23.9749471 19.1187259,23.9794774 C19.2852122,24.0032611 22.2944241,24.17088 25.1450776,25.4472751 C25.1450776,25.4472751 25.8472648,25.7088965 25.4905084,26.9513148 L23.7610893,33.7681934 L25.7402954,37.7200623 C25.2648482,38.8826193 25.0271246,39.4638978 25.0271246,39.4638978 L22.4869593,34.0592614 C22.4778988,34.0298148 22.4495848,33.9256193 22.4495848,33.9256193 L22.4450546,33.864461 C22.4416569,33.8327494 22.4405244,33.8168935 22.4405244,33.8021702 L22.4473197,33.7500725 C22.4495848,33.722891 22.45185,33.6979747 22.4575128,33.674191 L24.256018,26.5662444 C24.2628134,26.539063 24.2718739,26.5130141 24.2820669,26.4869652 C21.7859047,25.6352801 18.9907466,25.2275585 18.9601675,25.2230282 C18.6339902,25.1765933 18.4040805,24.860609 18.4482504,24.5163108 C18.48789,24.2071219 18.7415834,23.972682 19.0383141,23.972682 Z M22.4745012,16.9349542 C24.0136502,16.9349542 25.2662616,18.2272051 25.2662616,19.8150542 C25.2662616,21.4017708 24.0136502,22.6940218 22.4745012,22.6940218 C20.9353521,22.6940218 19.6838733,21.4017708 19.6838733,19.8150542 C19.6838733,18.2272051 20.9353521,16.9349542 22.4745012,16.9349542 Z M22.4745012,18.1694446 C21.5956346,18.1694446 20.8798567,18.9078737 20.8798567,19.8150542 C20.8798567,20.7211022 21.5956346,21.4595314 22.4745012,21.4595314 C23.3533677,21.4595314 24.0691456,20.7211022 24.0691456,19.8150542 C24.0691456,18.9078737 23.3533677,18.1694446 22.4745012,18.1694446 Z M38.4166667,12.0175439 C40.4846688,12.0175439 42.1666667,13.7527894 42.1666667,15.886259 C42.1666667,18.0191405 40.4846688,19.754386 38.4166667,19.754386 C36.3486645,19.754386 34.6666667,18.0191405 34.6666667,15.886259 C34.6666667,13.7527894 36.3486645,12.0175439 38.4166667,12.0175439 Z M38.4166667,13.6757327 C37.2358471,13.6757327 36.2745426,14.6674696 36.2745426,15.886259 C36.2745426,17.1044602 37.2358471,18.0961971 38.4166667,18.0961971 C39.5974862,18.0961971 40.5587907,17.1044602 40.5587907,15.886259 C40.5587907,14.6674696 39.5974862,13.6757327 38.4166667,13.6757327 Z" id="path-2"></path>
        <filter x="-89.2%" y="-55.1%" width="278.4%" height="234.7%" filterUnits="objectBoundingBox" id="filter-3">
            <feOffset dx="0" dy="6" in="SourceAlpha" result="shadowOffsetOuter1"></feOffset>
            <feGaussianBlur stdDeviation="10" in="shadowOffsetOuter1" result="shadowBlurOuter1"></feGaussianBlur>
            <feColorMatrix values="0 0 0 0 0   0 0 0 0 0   0 0 0 0 0  0 0 0 0.2 0" type="matrix" in="shadowBlurOuter1"></feColorMatrix>
        </filter>
    </defs>
    <g id="ICON-/-Outras-Aulas" stroke="none" stroke-width="1" fill="none" fill-rule="evenodd">
        <g id="Combined-Shape">
            <use fill="black" fill-opacity="1" filter="url(#filter-3)" xlink:href="#path-2"></use>
            <use fill="url(#linearGradient-1)" fill-rule="evenodd" xlink:href="#path-2"></use>
        </g>
    </g>
</svg>