<?xml version="1.0" encoding="UTF-8"?>
<svg width="42px" height="42px" viewBox="0 0 42 42" version="1.1" xmlns="http://www.w3.org/2000/svg" xmlns:xlink="http://www.w3.org/1999/xlink">
    <!-- Generator: sketchtool 58 (101010) - https://sketch.com -->
    <title>6441D2A8-DA8A-49E1-8C85-36644C566631</title>
    <desc>Created with sketchtool.</desc>
    <g id="Asset-Artboard-Page" stroke="none" stroke-width="1" fill="none" fill-rule="evenodd">
        <g id="ICON-/-Recomendadas-Copy-ICON-/-Outras-Aulas">
            <rect x="0" y="0" width="42" height="42"></rect>
            <path d="M29.5404617,4.2 C29.8342971,4.2 30.0907039,4.41852279 30.1358763,4.70846937 C30.1603984,4.86662205 30.1208188,5.02477472 30.0253116,5.15401777 C29.9293741,5.28326082 29.7886945,5.367864 29.6282251,5.39209708 C20.6567333,6.75628264 21.3797,13.5328506 21.4397036,13.991928 L21.4417042,14.0067415 L22.2509347,24.2433012 C22.2509347,24.2832645 22.249644,24.3036713 22.2483534,24.323653 C22.247493,24.3449101 22.2466325,24.3640414 22.243621,24.3827477 C22.2410398,24.4001785 22.2363074,24.4159087 22.2320053,24.4320641 L22.2228633,24.4675634 L22.2130759,24.4992365 L17.4372828,36.0439569 C17.2406755,36.464422 17.2656278,37.026034 17.704445,37.2279763 C17.8102773,37.2764424 17.9204118,37.3006755 18.0322672,37.3006755 C18.1303557,37.3006755 18.2288745,37.2819693 18.3235213,37.2445568 C18.5009841,37.175117 18.6512599,37.0475155 18.7559251,36.8794665 L18.8131035,36.7739251 L24.0173887,26.7847978 C24.0367483,26.7490859 24.0573985,26.71635 24.0819207,26.6861649 C24.1051522,26.6568302 24.1301045,26.6338725 24.1550569,26.6117651 C24.1725522,26.5958932 24.1848849,26.5868235 24.1953694,26.5797693 L24.2101241,26.5701013 L24.2897135,26.5190843 L24.3503735,26.4982523 C24.3813488,26.4869152 24.3989398,26.4820025 24.4121967,26.4791052 L24.4299629,26.4757198 L24.4962157,26.4638159 L24.5852697,26.4625404 L24.6472204,26.4693427 C24.680777,26.4755781 24.6994195,26.4787903 24.7129633,26.4817505 L24.7306817,26.4863484 L24.8373745,26.5284374 L24.8812562,26.557347 C24.9118013,26.5764784 24.9281494,26.5862566 24.9423464,26.5981606 C24.9806354,26.6325971 25.0055877,26.656405 25.0270984,26.6827638 L25.0628598,26.7317082 L25.0924907,26.7822469 L30.2873112,36.7518177 C30.3991666,36.9881964 30.5729726,37.1603788 30.7876488,37.244982 C30.8822956,37.2819693 30.9803842,37.3006755 31.0793331,37.3006755 C31.1911885,37.3006755 31.301323,37.2764424 31.4071553,37.2279763 C31.7975239,37.0482395 31.8708077,36.568559 31.7261505,36.1677935 L31.6855031,36.0694654 L26.9036869,24.5166673 C26.8965884,24.4962605 26.8802941,24.435917 26.8725906,24.4070206 L26.8684095,24.3912505 L26.8641073,24.3342815 L26.8606656,24.2984634 L26.8598052,24.2747617 L26.8658282,24.2262956 L26.8697539,24.1893614 L26.8752929,24.1552969 L28.5674329,17.4703603 L28.5922953,17.3962209 C26.2449128,16.594138 23.6159344,16.2116304 23.5858145,16.2073054 C23.2792439,16.16376 23.0637299,15.8656413 23.1050832,15.542819 C23.1424601,15.2513997 23.3810365,15.031579 23.6601708,15.031579 C23.6852213,15.031579 23.7102718,15.0332538 23.73572,15.0370222 C23.8923851,15.0596323 27.6098023,15.6006004 30.2910028,16.8006118 C30.372914,16.8370392 30.446475,16.8944019 30.5029381,16.966838 L30.5029381,16.966838 L33.4704303,20.7351918 C33.6545317,20.9692485 33.6410124,21.3092377 33.4390177,21.5257087 L33.4390177,21.5257087 L30.3935096,25.0879564 C30.2873431,25.2018444 30.1449926,25.2646503 29.9938942,25.2646503 C29.8455793,25.2646503 29.7064097,25.2043567 29.6006409,25.0950744 C29.4940768,24.9849548 29.4344327,24.8371515 29.4328422,24.6792994 C29.4316493,24.5218659 29.4889076,24.3728066 29.5938812,24.2605934 L29.5938812,24.2605934 L32.2847058,21.0785307 L29.7283602,17.8318846 L29.726,17.83 L28.1018298,24.2437264 L32.7971731,35.5903308 C33.0411038,36.1098539 33.0828345,36.6740168 32.9167723,37.1846119 C32.7520008,37.6939315 32.396645,38.0952652 31.917818,38.3150634 C31.6506558,38.4379293 31.3684362,38.5 31.0793331,38.5 C30.8280888,38.5 30.5794258,38.4528093 30.3402274,38.358853 C29.8939532,38.1838836 29.5238215,37.8611119 29.2824065,37.4407011 L29.1980122,37.2785682 L24.5560153,28.3697257 L19.9024026,37.3006755 C19.6778314,37.7810855 19.2661177,38.1649884 18.7713729,38.358853 C18.5321745,38.4528093 18.2835115,38.5 18.0326974,38.5 C17.7435943,38.5 17.4613747,38.4379293 17.1937823,38.3150634 C16.2426989,37.8784043 15.8517714,36.7576485 16.2615934,35.7133983 L16.3256127,35.5648223 L21.0304207,24.1948351 L20.236678,14.1457628 C20.1428916,13.2818751 19.6077067,5.70287559 29.444094,4.20765255 C29.4767902,4.20212571 29.5090561,4.2 29.5404617,4.2 Z M17.7038245,8.71897559 C17.9226351,8.71897559 18.1136979,8.88229074 18.1469952,9.09793015 C18.1652294,9.21526337 18.1358961,9.33338937 18.0645448,9.4293172 C17.9931935,9.52603782 17.888545,9.58866839 17.7696262,9.6069026 C11.0039393,10.6351538 11.645308,15.7994007 11.6754341,16.0190041 L12.277956,23.6377349 C12.277956,23.6670683 12.2771633,23.6829241 12.2763705,23.6979871 C12.2755777,23.7130502 12.2747849,23.7273204 12.2724065,23.7415907 C12.2708209,23.7542754 12.2676497,23.7661672 12.2644786,23.7780591 C12.258929,23.7970861 12.2549651,23.812942 12.2502083,23.828005 L8.69532901,32.4210772 C8.54945528,32.7342301 8.5676895,33.1520314 8.8943198,33.3018691 C8.97280621,33.3383375 9.05446379,33.3565718 9.13849974,33.3565718 C9.2114366,33.3565718 9.28437347,33.3423015 9.35493195,33.3145538 C9.51349035,33.252716 9.64271545,33.1282477 9.71961627,32.9641397 L13.5924052,25.5293366 C13.6074682,25.5023817 13.6225313,25.4785979 13.6407655,25.4556069 C13.6582069,25.4342016 13.6764411,25.4175529 13.6954681,25.4009043 C13.7152879,25.3826701 13.7255942,25.3763277 13.7366933,25.3691926 L13.7953599,25.3319314 L13.8405491,25.3160756 C13.8754319,25.3033909 13.8873238,25.3018053 13.9000085,25.2994269 L13.9491616,25.2907062 L14.0157561,25.2891206 L14.061738,25.2946702 C14.0989993,25.3018053 14.1116839,25.3033909 14.1235758,25.3073548 L14.202855,25.3382737 L14.2353595,25.3596791 C14.2583505,25.3739494 14.2710351,25.3818773 14.2813414,25.390598 C14.3098819,25.4159673 14.3281161,25.4334088 14.3447648,25.4532286 C14.3637918,25.4778051 14.3804404,25.5015889 14.3931251,25.527751 L16.6311769,29.8310258 C16.6282059,29.8176879 16.198587,30.8541314 16.198587,30.8541314 L13.9935579,26.7090111 L10.5298497,33.3565718 C10.3633634,33.7141209 10.0565529,33.999526 9.68869738,34.1438142 C9.51031918,34.2135799 9.32559865,34.2492555 9.13849974,34.2492555 C8.92365311,34.2492555 8.71356323,34.2032736 8.51377965,34.1113097 C7.77251913,33.771202 7.48869959,32.8713831 7.86765417,32.0643208 L11.3694164,23.6012665 L10.7787864,16.122067 C10.7090207,15.4791127 10.3110391,9.83839786 17.6316804,8.72531793 C17.656257,8.72056118 17.6800407,8.71897559 17.7038245,8.71897559 Z M13.3268199,16.7808777 C13.3458469,16.7808777 13.3640811,16.7824633 13.3831082,16.7856345 C13.4996486,16.8022831 15.6060969,16.9196163 17.6015543,17.8130929 C17.6015543,17.8130929 18.0930854,17.9962279 17.8433559,18.8659207 L16.6327625,23.6377357 L18.0182068,26.4040438 C17.6853938,27.2178338 17.5189873,27.6247287 17.5189873,27.6247287 L15.7408715,23.8414832 C15.7345292,23.8208706 15.7147094,23.7479338 15.7147094,23.7479338 L15.7115382,23.705123 C15.7091599,23.6829248 15.7083671,23.6718257 15.7083671,23.6615194 L15.7131238,23.625051 C15.7147094,23.606024 15.716295,23.5885826 15.7202589,23.5719339 L16.9792126,18.5963714 C16.9839694,18.5773444 16.9903117,18.5591102 16.9974468,18.540876 C15.2501333,17.9446964 13.2935227,17.6592913 13.2721173,17.6561201 C13.0437932,17.6236156 12.8828564,17.4024267 12.9137753,17.1614179 C12.941523,16.9449857 13.1191084,16.7808777 13.3268199,16.7808777 Z M15.7321508,11.8544679 C16.8095551,11.8544679 17.6863831,12.7590436 17.6863831,13.8705379 C17.6863831,14.9812395 16.8095551,15.8858152 15.7321508,15.8858152 C14.6547464,15.8858152 13.7787112,14.9812395 13.7787112,13.8705379 C13.7787112,12.7590436 14.6547464,11.8544679 15.7321508,11.8544679 Z M15.7321507,12.7186112 C15.1169441,12.7186112 14.6158996,13.2355116 14.6158996,13.8705379 C14.6158996,14.5047715 15.1169441,15.0216719 15.7321507,15.0216719 C16.3473573,15.0216719 16.8484018,14.5047715 16.8484018,13.8705379 C16.8484018,13.2355116 16.3473573,12.7186112 15.7321507,12.7186112 Z M26.8916669,8.41228065 C28.3392684,8.41228065 29.5166669,9.62695252 29.5166669,11.1203813 C29.5166669,12.6133983 28.3392684,13.8280702 26.8916669,13.8280702 C25.4440654,13.8280702 24.2666669,12.6133983 24.2666669,11.1203813 C24.2666669,9.62695252 25.4440654,8.41228065 26.8916669,8.41228065 Z M26.891667,9.57301283 C26.0650933,9.57301283 25.39218,10.2672287 25.39218,11.1203813 C25.39218,11.9731221 26.0650933,12.667338 26.891667,12.667338 C27.7182407,12.667338 28.3911539,11.9731221 28.3911539,11.1203813 C28.3911539,10.2672287 27.7182407,9.57301283 26.891667,9.57301283 Z" id="Combined-Shape" fill="#FFFFFF"></path>
        </g>
    </g>
</svg>