<?xml version="1.0" encoding="UTF-8"?>
<svg width="60px" height="60px" viewBox="0 0 60 60" version="1.1" xmlns="http://www.w3.org/2000/svg" xmlns:xlink="http://www.w3.org/1999/xlink">
    <!-- Generator: Sketch 57.1 (83088) - https://sketch.com -->
    <title>ICON / Plano Treino</title>
    <desc>Created with Sketch.</desc>
    <defs>
        <linearGradient x1="0%" y1="53.7078125%" x2="100%" y2="53.7078125%" id="linearGradient-1">
            <stop stop-color="#F23C2E" offset="0%"></stop>
            <stop stop-color="#A90766" offset="48.5701525%"></stop>
            <stop stop-color="#7D0248" offset="100%"></stop>
        </linearGradient>
    </defs>
    <g id="ICON-/-Plano-Treino" stroke="none" stroke-width="1" fill="none" fill-rule="evenodd">
        <rect x="0" y="0" width="60" height="60"></rect>
        <path d="M22.034,10.067 C21.464,10.067 21,9.603 21,9.033 C21,8.519 21.385,8.079 21.894,8.009 L22.015,8.001 L33.034,8 C33.604,8 34.068,8.463 34.068,9.033 C34.068,9.548 33.683,9.988 33.174,10.057 L33.044,10.067 L22.034,10.067 Z M29.534,22.567 C28.964,22.567 28.5,22.103 28.5,21.533 C28.5,21.019 28.885,20.579 29.394,20.509 L29.515,20.501 L36.534,20.5 C37.104,20.5 37.568,20.963 37.568,21.533 C37.568,22.048 37.183,22.488 36.674,22.557 L36.544,22.567 L29.534,22.567 Z M20.775,25.452 C20.551,25.452 20.337,25.381 20.158,25.248 L20.058,25.162 L18.302,23.402 C18.107,23.207 18,22.947 18,22.671 C18.001,22.395 18.109,22.135 18.305,21.941 C18.499,21.746 18.759,21.639 19.034,21.639 C19.258,21.639 19.471,21.71 19.65,21.843 L19.751,21.929 L20.775,22.956 L24.925,18.803 C25.12,18.608 25.38,18.5 25.656,18.5 C25.932,18.5 26.191,18.607 26.387,18.802 C26.746,19.162 26.789,19.74 26.487,20.148 L26.402,20.248 L21.506,25.149 C21.31,25.344 21.051,25.452 20.775,25.452 L20.775,25.452 Z M29.534,31.567 C28.964,31.567 28.5,31.103 28.5,30.533 C28.5,30.019 28.885,29.579 29.394,29.509 L29.515,29.501 L36.534,29.5 C37.104,29.5 37.568,29.963 37.568,30.533 C37.568,31.048 37.183,31.488 36.674,31.557 L36.544,31.567 L29.534,31.567 Z M20.775,34.452 C20.498,34.452 20.238,34.344 20.042,34.148 L18.302,32.402 C18.107,32.207 18,31.947 18,31.671 C18.001,31.395 18.109,31.135 18.305,30.941 C18.499,30.747 18.759,30.639 19.034,30.639 C19.311,30.639 19.571,30.747 19.766,30.943 L20.775,31.956 L24.925,27.803 C25.12,27.608 25.38,27.5 25.656,27.5 C25.932,27.5 26.191,27.607 26.387,27.802 C26.789,28.205 26.79,28.86 26.388,29.264 L21.506,34.149 C21.31,34.344 21.051,34.452 20.775,34.452 L20.775,34.452 Z M30.01,47.923 L30.001,47.802 L30,41.283 C30,40.713 30.464,40.25 31.034,40.25 C31.549,40.25 31.989,40.634 32.058,41.143 L32.067,41.264 L32.068,47.783 C32.068,48.353 31.604,48.817 31.034,48.817 C30.519,48.817 30.079,48.433 30.01,47.923 Z M50.034,48.817 C49.464,48.817 49,48.353 49,47.783 L49,41.283 C49,40.713 49.464,40.25 50.034,40.25 C50.604,40.25 51.068,40.713 51.068,41.283 L51.068,47.783 C51.068,48.353 50.604,48.817 50.034,48.817 L50.034,48.817 Z M15.034,50.017 C13.982,50.017 13.092,49.196 13.007,48.15 L13.001,47.995 L13,14.033 C13,12.982 13.821,12.091 14.867,12.006 L15.022,12 L39.811,12 C40.863,12 41.753,12.82 41.838,13.867 L41.845,14.022 L41.845,35.074 L39.778,35.074 L39.778,14.033 L15.034,14.067 L15.068,47.983 L26.171,47.949 L26.171,50.017 L15.034,50.017 Z M35.817,45.025 L45.416,45.025 L45.416,42.9 L35.817,42.9 L35.817,45.025 Z M46.451,51.816 C45.881,51.816 45.417,51.353 45.417,50.783 L45.417,47.259 L35.818,47.259 L35.818,50.783 C35.818,51.353 35.354,51.816 34.784,51.816 C34.269,51.816 33.829,51.432 33.76,50.923 L33.751,50.801 L33.75,37.283 C33.75,36.713 34.214,36.25 34.784,36.25 C35.299,36.25 35.739,36.634 35.808,37.143 L35.817,37.264 L35.817,40.666 L45.417,40.666 L45.417,37.283 C45.417,36.713 45.881,36.25 46.451,36.25 C47.02,36.25 47.484,36.713 47.484,37.283 L47.484,50.783 C47.484,51.353 47.02,51.816 46.451,51.816 L46.451,51.816 Z" id="Fill-1" fill="url(#linearGradient-1)"></path>
    </g>
</svg>