<?xml version="1.0" encoding="UTF-8"?>
<svg width="40px" height="40px" viewBox="0 0 40 40" version="1.1" xmlns="http://www.w3.org/2000/svg" xmlns:xlink="http://www.w3.org/1999/xlink">
    <!-- Generator: sketchtool 58 (101010) - https://sketch.com -->
    <title>B69E748C-4271-442F-AD0D-2606785D1BA8</title>
    <desc>Created with sketchtool.</desc>
    <defs>
        <linearGradient x1="50%" y1="0%" x2="50%" y2="100%" id="linearGradient-1">
            <stop stop-color="#FF9C7A" offset="0%"></stop>
            <stop stop-color="#F34C30" offset="100%"></stop>
        </linearGradient>
        <path d="M24.8004397,4 C25.0802829,4 25.3244799,4.20811694 25.3675012,4.48425654 C25.3908556,4.63487814 25.3531608,4.78549974 25.2622015,4.90858836 C25.1708325,5.03167698 25.0368519,5.11225143 24.8840239,5.13533055 C16.3459063,6.43361818 17.0272976,12.8791256 17.0853074,13.3246907 L17.0873374,13.3397538 L17.858033,23.0888583 C17.858033,23.1269186 17.8568038,23.1463537 17.8555746,23.1653838 C17.8547552,23.1856286 17.8539357,23.203849 17.8510677,23.2216645 C17.8486093,23.2382652 17.8441023,23.2532464 17.840005,23.2686325 L17.8312983,23.3024414 L17.8219771,23.3326062 L13.2736026,34.327578 C13.0863576,34.7280209 13.1101217,35.2628896 13.5280428,35.4552155 C13.6288356,35.5013738 13.7337255,35.5244529 13.8402545,35.5244529 C13.9336721,35.5244529 14.0274995,35.5066374 14.1176393,35.4710065 C14.2866515,35.4048734 14.4297713,35.2833481 14.5294524,35.1233014 L14.5839081,35.0227858 L19.5403702,25.5093312 C19.5588079,25.4753199 19.5784748,25.4441428 19.6018292,25.4153952 C19.6239544,25.3874573 19.6477186,25.3655929 19.6714827,25.3445382 C19.6881449,25.3294221 19.6998904,25.3207843 19.7098756,25.314066 L19.7239277,25.3048583 L19.7997271,25.2562707 L19.8574986,25.2364308 C19.8869989,25.2256335 19.9037521,25.2209547 19.9163778,25.2181954 L19.933298,25.2149713 L19.9963959,25.2036342 L20.0812093,25.2024195 L20.1402099,25.2088978 C20.1721686,25.2148363 20.1899234,25.2178955 20.2028222,25.2207148 L20.2196968,25.2250937 L20.321309,25.2651785 L20.3631011,25.2927114 C20.3921917,25.3109318 20.4077613,25.3202444 20.4212823,25.3315815 C20.457748,25.3643782 20.4815121,25.3870524 20.5019984,25.412156 L20.536057,25.4587697 L20.5642769,25.5069018 L25.511725,35.0017311 C25.6182539,35.2268537 25.7837834,35.3908369 25.9882369,35.4714114 C26.0783768,35.5066374 26.1717944,35.5244529 26.2660315,35.5244529 C26.3725605,35.5244529 26.4774504,35.5013738 26.5782432,35.4552155 C26.9474409,35.2852264 27.018833,34.8335303 26.8848882,34.4534801 L26.8433363,34.3518718 L22.2892256,23.3492069 C22.2824652,23.3297719 22.2669468,23.2723019 22.2596101,23.2447815 L22.2556281,23.2297624 L22.2515308,23.1755062 L22.248253,23.1413937 L22.2474335,23.1188207 L22.2531697,23.0726624 L22.2569085,23.037487 L22.2621837,23.0050447 L23.8737456,16.6384384 L23.8976359,16.5679018 C21.6619799,15.803964 19.1580336,15.4396481 19.1293471,15.435529 C18.8373751,15.3940571 18.6321237,15.1101346 18.6715078,14.8026848 C18.7071049,14.5251425 18.9343204,14.3157895 19.2001627,14.3157895 C19.2240203,14.3157895 19.2478779,14.3173846 19.2721143,14.3209735 C19.4213191,14.342507 22.9617164,14.8577147 25.5152408,16.0005826 C25.5932514,16.0352754 25.6633096,16.0899066 25.7170839,16.1588934 L25.7170839,16.1588934 L28.5432669,19.7478018 C28.7186016,19.9707128 28.7057261,20.2945121 28.5133502,20.500675 L28.5133502,20.500675 L25.6128663,23.8932918 C25.5117554,24.0017566 25.3761834,24.0615718 25.2322802,24.0615718 C25.0910279,24.0615718 24.9584855,24.0041492 24.8577532,23.9000709 C24.7562636,23.795195 24.6994597,23.65443 24.6979449,23.5040947 C24.6968089,23.354158 24.7513406,23.2121968 24.8513155,23.1053271 L24.8513155,23.1053271 L27.4140055,20.0747912 L24.9793907,16.9827472 L24.977,16.981 L23.4303141,23.0892632 L27.9020697,33.8955532 C28.1343846,34.390337 28.1741281,34.927635 28.0159736,35.4139161 C27.8590484,35.8989824 27.5206142,36.2812049 27.0645886,36.4905366 C26.8101484,36.6075517 26.5413678,36.6666667 26.2660315,36.6666667 C26.0267512,36.6666667 25.7899293,36.6217231 25.5621213,36.5322409 C25.1370983,36.3656034 24.7845919,36.0582018 24.5546729,35.6578105 L24.4742973,35.5033982 L20.0533479,27.0187864 L15.6213358,35.5244529 C15.4074585,35.9819862 15.0153502,36.347608 14.5441647,36.5322409 C14.3163567,36.6217231 14.0795348,36.6666667 13.8406642,36.6666667 C13.5653279,36.6666667 13.2965473,36.6075517 13.0416974,36.4905366 C12.1379577,36.0756138 11.7652831,35.0121217 12.1512551,34.0195269 L12.2148692,33.8712594 L16.6956388,23.0427001 L15.9396933,13.4721551 C15.8503729,12.6494048 15.3406731,5.43131009 24.7086609,4.00728814 C24.7398001,4.00202448 24.7705296,4 24.8004397,4 Z M13.5274519,8.30378628 C13.7358429,8.30378628 13.9178076,8.45932451 13.9495192,8.66469539 C13.9668852,8.7764413 13.9389487,8.88894226 13.8709951,8.9803021 C13.8030415,9.07241697 13.7033762,9.13206513 13.5901202,9.14943105 C7.14660886,10.1287179 7.75743622,15.0470483 7.78612774,15.2561944 L8.35995814,22.5121285 C8.35995814,22.540065 8.3592031,22.5551658 8.35844806,22.5695116 C8.35769302,22.5838573 8.35693798,22.597448 8.35467286,22.6110388 C8.35316278,22.6231194 8.35014262,22.634445 8.34712246,22.6457706 C8.34183718,22.6638916 8.33806198,22.6789924 8.33353174,22.6933381 L4.94793239,30.8772164 C4.80900503,31.1754572 4.82637095,31.5733633 5.13744743,31.7160658 C5.21219639,31.7507977 5.28996551,31.7681636 5.36999975,31.7681636 C5.43946343,31.7681636 5.50892711,31.7545729 5.57612567,31.7281465 C5.72713367,31.6692533 5.85020519,31.5507121 5.92344407,31.3944188 L9.61181445,24.3136539 C9.62616021,24.2879825 9.64050597,24.2653313 9.65787189,24.2434352 C9.67448277,24.2230491 9.69184869,24.2071933 9.70996965,24.1913374 C9.72884565,24.1739715 9.73866117,24.1679312 9.74923173,24.1611358 L9.80510469,24.1256489 L9.84814197,24.1105481 C9.88136373,24.0984675 9.89268933,24.0969574 9.90476997,24.0946923 L9.95158245,24.0863869 L10.0150058,24.0848768 L10.0587981,24.0901621 C10.094285,24.0969574 10.1063657,24.0984675 10.1176913,24.1022427 L10.1931953,24.1316893 L10.2241519,24.1520753 C10.2460481,24.1656661 10.2581287,24.1732165 10.2679442,24.1815219 C10.2951257,24.2056832 10.3124916,24.2222941 10.3283474,24.2411701 C10.3464684,24.2645763 10.3623242,24.2872275 10.3744048,24.3121438 L12.5058828,28.4105008 C12.5030532,28.397798 12.0938924,29.384887 12.0938924,29.384887 L9.99386469,25.4371534 L6.69509495,31.7681636 C6.53653655,32.1086866 6.24433607,32.380501 5.89399751,32.5179183 C5.72411351,32.5843618 5.54818919,32.6183386 5.36999975,32.6183386 C5.16538391,32.6183386 4.96529831,32.5745463 4.77502823,32.4869616 C4.06906584,32.1630495 3.79876152,31.3060791 4.15967064,30.5374484 L7.4946823,22.4773967 L6.9321775,15.3543496 C6.86573398,14.7420121 6.48670391,9.36990272 13.4587432,8.3098266 C13.4821495,8.30529636 13.5048007,8.30378628 13.5274519,8.30378628 Z M9.35887611,15.9817883 C9.37699707,15.9817883 9.39436299,15.9832984 9.41248395,15.9863186 C9.52347483,16.0021744 11.5296161,16.1139203 13.4300518,16.9648504 C13.4300518,16.9648504 13.8981766,17.1392646 13.660339,17.9675435 L12.5073929,22.5121292 L13.8268636,25.1467084 C13.5098988,25.9217464 13.3514164,26.3092655 13.3514164,26.3092655 L11.6579729,22.7061745 C11.6519326,22.6865435 11.6330566,22.6170798 11.6330566,22.6170798 L11.6300364,22.5763076 C11.6277713,22.5551665 11.6270163,22.5445959 11.6270163,22.5347804 L11.6315465,22.5000486 C11.6330566,22.4819276 11.6345667,22.4653167 11.6383419,22.4494609 L12.8373454,17.7108299 C12.8418756,17.6927089 12.8479159,17.675343 12.8547113,17.6579771 C11.1906031,17.090187 9.32716443,16.8183726 9.30677835,16.8153525 C9.08932684,16.7843958 8.93605372,16.5737397 8.96550028,16.3442075 C8.99192668,16.1380816 9.16105564,15.9817883 9.35887611,15.9817883 Z M11.6496674,11.2899694 C12.6757668,11.2899694 13.5108411,12.1514701 13.5108411,13.2100361 C13.5108411,14.2678472 12.6757668,15.1293478 11.6496674,15.1293478 C10.623568,15.1293478 9.78924878,14.2678472 9.78924878,13.2100361 C9.78924878,12.1514701 10.623568,11.2899694 11.6496674,11.2899694 Z M11.6496673,12.112963 C11.0637563,12.112963 10.5865711,12.6052491 10.5865711,13.2100361 C10.5865711,13.8140681 11.0637563,14.3063542 11.6496673,14.3063542 C12.2355784,14.3063542 12.7127636,13.8140681 12.7127636,13.2100361 C12.7127636,12.6052491 12.2355784,12.112963 11.6496673,12.112963 Z M22.277778,8.01169586 C23.6564461,8.01169586 24.777778,9.16852621 24.777778,10.5908393 C24.777778,12.0127603 23.6564461,13.1695906 22.277778,13.1695906 C20.8991099,13.1695906 19.777778,12.0127603 19.777778,10.5908393 C19.777778,9.16852621 20.8991099,8.01169586 22.277778,8.01169586 Z M22.2777781,9.11715508 C21.490565,9.11715508 20.8496953,9.77831304 20.8496953,10.5908393 C20.8496953,11.4029735 21.490565,12.0641314 22.2777781,12.0641314 C23.0649911,12.0641314 23.7058609,11.4029735 23.7058609,10.5908393 C23.7058609,9.77831304 23.0649911,9.11715508 22.2777781,9.11715508 Z M29.3145565,16.5601718 C28.9927071,16.7523496 28.5936275,16.4689006 28.6811334,16.1102787 L29.5018927,12.746595 L26.8154267,10.4969341 C26.529007,10.2570847 26.6814418,9.79845451 27.0573728,9.76899186 L30.5834068,9.49264771 L31.9418563,6.2997541 C32.0866885,5.95934117 32.5799781,5.95934117 32.7248103,6.2997541 L34.0832599,9.49264771 L37.6092939,9.76899186 C37.9852248,9.79845451 38.1376597,10.2570847 37.85124,10.4969341 L35.164774,12.746595 L35.9855333,16.1102787 C36.0730392,16.4689006 35.6739595,16.7523496 35.3521102,16.5601718 L32.3333333,14.7576451 L29.3145565,16.5601718 Z" id="path-2"></path>
        <filter x="-97.1%" y="-82.7%" width="294.1%" height="302.0%" filterUnits="objectBoundingBox" id="filter-3">
            <feOffset dx="0" dy="6" in="SourceAlpha" result="shadowOffsetOuter1"></feOffset>
            <feGaussianBlur stdDeviation="10" in="shadowOffsetOuter1" result="shadowBlurOuter1"></feGaussianBlur>
            <feColorMatrix values="0 0 0 0 0   0 0 0 0 0   0 0 0 0 0  0 0 0 0.2 0" type="matrix" in="shadowBlurOuter1"></feColorMatrix>
        </filter>
    </defs>
    <g id="Asset-Artboard-Page" stroke="none" stroke-width="1" fill="none" fill-rule="evenodd">
        <g id="ICON-/-Recomendadas-Copy-ICON-/-Recomendadas">
            <rect x="0" y="0" width="40" height="40"></rect>
            <g id="Combined-Shape">
                <use fill="black" fill-opacity="1" filter="url(#filter-3)" xlink:href="#path-2"></use>
                <use fill="url(#linearGradient-1)" fill-rule="evenodd" xlink:href="#path-2"></use>
            </g>
        </g>
    </g>
</svg>