<?xml version="1.0" encoding="UTF-8"?>
<svg width="110px" height="110px" viewBox="0 0 110 110" version="1.1" xmlns="http://www.w3.org/2000/svg" xmlns:xlink="http://www.w3.org/1999/xlink">
    <title>Desafio / Add Friend inscricao</title>
    <defs>
        <linearGradient x1="50%" y1="0%" x2="50%" y2="100%" id="linearGradient-1">
            <stop stop-color="#F23C2E" offset="0%"></stop>
            <stop stop-color="#A90766" offset="48.5701525%"></stop>
            <stop stop-color="#7D0248" offset="100%"></stop>
        </linearGradient>
        <path d="M57.7408108,9.47271131 L93.506928,30.1222887 C95.0853752,31.0336056 96.0577388,32.7177888 96.0577388,34.5404226 L96.0577388,75.8395774 C96.0577388,77.6622112 95.0853752,79.3463944 93.506928,80.2577113 L57.7408108,100.907289 C56.1623636,101.818606 54.2176364,101.818606 52.6391892,100.907289 L16.873072,80.2577113 C15.2946248,79.3463944 14.3222612,77.6622112 14.3222612,75.8395774 L14.3222612,34.5404226 C14.3222612,32.7177888 15.2946248,31.0336056 16.873072,30.1222887 L52.6391892,9.47271131 C54.2176364,8.56139438 56.1623636,8.56139438 57.7408108,9.47271131 Z" id="path-2"></path>
    </defs>
    <g id="Desafio-/-Add-Friend-inscricao" stroke="none" stroke-width="1" fill="none" fill-rule="evenodd">
        <g id="Group-2-Copy-4">
            <path d="M57.42,1.39718765 L100.211397,26.1028123 C101.708898,26.9673951 102.631397,28.5652098 102.631397,30.2943753 L102.631397,79.7056247 C102.631397,81.4347902 101.708898,83.0326049 100.211397,83.8971877 L57.42,108.602812 C55.9224988,109.467395 54.0775012,109.467395 52.58,108.602812 L9.78860279,83.8971877 C8.29110158,83.0326049 7.36860279,81.4347902 7.36860279,79.7056247 L7.36860279,30.2943753 C7.36860279,28.5652098 8.29110158,26.9673951 9.78860279,26.1028123 L52.58,1.39718765 C54.0775012,0.532604924 55.9224988,0.532604924 57.42,1.39718765 Z" id="Polygon" fill="#FFFFFF"></path>
            <mask id="mask-3" fill="white">
                <use xlink:href="#path-2"></use>
            </mask>
            <use id="Mask" fill="url(#linearGradient-1)" xlink:href="#path-2"></use>
            <g id="friend" mask="url(#mask-3)">
                <g transform="translate(37.000000, 23.000000)">
                    <path d="M59.4099208,34.0905214 C57.4272171,32.1270218 47.6930523,22.503505 30.2074266,5.2199707 L30.2074266,42.5053786 L23.2087946,26.1342686 L8.20516069,11.2760317 L0,55.5829987 L23.6535625,79 C32.742162,74.5654595 51.9003236,66.8864065 58.4099208,57.3806173 C65.7394146,46.6775552 60.8041251,35.4712215 59.4099208,34.0905214 Z" id="Path" fill="#5D0135" opacity="0.65"></path>
                    <g id="Group" stroke-width="1" fill="none">
                        <g transform="translate(0.120120, 0.000000)" id="Path">
                            <path d="M17.6181205,0 C17.6088713,0 17.5997422,0 17.590613,0 L15.5454499,24.50448 L17.5904929,47.92788 L25.5944489,47.92788 C30.8931823,47.92788 35.2040489,43.6170134 35.2040489,38.31828 L35.2040489,17.5859284 C35.2040489,7.88900112 27.3151679,0 17.6181205,0 Z" fill="#1F1417" fill-rule="nonzero"></path>
                            <path d="M0.03219216,17.5859284 L0.03219216,38.31828 C0.03219216,43.6170134 4.34305872,47.92788 9.64179216,47.92788 L17.590613,47.92788 L17.590613,0.00036036 C7.9062984,0.01525524 0.03219216,7.89825036 0.03219216,17.5859284 Z" fill="#2C2728"></path>
                        </g>
                        <g transform="translate(0.000000, 38.438400)" fill-rule="nonzero" id="Path">
                            <path d="M35.40537,17.17716 L35.40537,11.53152 C35.40537,5.20371852 30.2573872,0.05573568 23.9297058,0.05573568 L17.7140964,0.05573568 L16.94689,10.2502 L17.7140964,17.17716 L35.40537,17.17716 Z" fill="#6615A2"></path>
                            <path d="M0.07002996,11.53152 L0.07002996,17.17716 L17.7128952,17.17716 L17.7128952,0.05573568 L11.5458143,0.05573568 C5.2180128,0.05573568 0.07002996,5.20371852 0.07002996,11.53152 Z" fill="#7E1AC7"></path>
                        </g>
                        <g transform="translate(6.366360, 12.012000)" fill-rule="nonzero" id="Path">
                            <path d="M20.9324716,5.4054 C17.5488113,5.4054 14.5627482,3.25981656 13.4789054,0.06006 L11.3442529,0.06006 L10.58053,14.89488 L11.344373,33.427354 C11.3536223,33.4274741 11.3626313,33.4280747 11.3718805,33.4280747 C14.5261116,33.4280747 17.0922352,30.8619511 17.0922352,27.70772 L17.0922352,23.1031601 L22.7343917,23.1031601 L22.7343917,5.4054 L20.9324716,5.4054 Z" fill="#FAB9AF"></path>
                            <path d="M9.31842912,0.06006 C8.23518696,3.2576544 5.24095572,5.4054 1.86402216,5.4054 L0.00948948,5.4054 L0.00948948,23.10304 L5.65152588,23.10304 L5.65152588,27.7075999 C5.65152588,30.8525818 8.20275456,33.4122188 11.3442529,33.4272338 L11.3442529,0.06006 L9.31842912,0.06006 Z" fill="#FFD7CD"></path>
                        </g>
                    </g>
                    <g id="Group" stroke-width="1" fill="none" transform="translate(24.507000, 33.681500)">
                        <circle id="Oval" fill="#FFFFFF" fill-rule="nonzero" transform="translate(14.025000, 14.025000) rotate(-12.479072) translate(-14.025000, -14.025000) " cx="14.025" cy="14.025" r="11.025"></circle>
                    </g>
                </g>
            </g>
        </g>
        <g id="Group-3" transform="translate(69.000000, 64.000000)" fill="#A80766">
            <path d="M5.28811933,11.2990096 L5.0226447,11.129566 L5.81121027,8.95278796 L6.23282635,9.30622852 C6.6511966,9.65672374 7.19188335,9.83448356 7.83985329,9.83448356 C9.68536322,9.83448356 10.1025376,8.42730502 10.1025376,8.16846178 L10.1025376,3.83136496 C10.1025376,3.46389073 9.56065506,2.16586296 7.83985329,2.16586296 C6.20566389,2.16586296 5.72135206,3.31038665 5.64071884,3.5397765 L2.57375227,12 L0.269042969,12 L3.6093425,2.78230487 C4.09707099,1.43715168 5.46458992,0 7.83985329,0 C10.9698573,0 12.269043,2.4953943 12.269043,3.83136496 L12.269043,8.16846178 C12.269043,9.5046057 10.9698573,12 7.83985329,12 C6.87584213,12 6.01740582,11.7641997 5.28811933,11.2990096 Z" id="Fill-1"></path>
        </g>
    </g>
</svg>