<?xml version="1.0" encoding="UTF-8"?>
<svg width="40px" height="40px" viewBox="0 0 40 40" version="1.1" xmlns="http://www.w3.org/2000/svg" xmlns:xlink="http://www.w3.org/1999/xlink">
    <!-- Generator: Sketch 56.3 (81716) - https://sketch.com -->
    <title>Icon / Alert</title>
    <desc>Created with Sketch.</desc>
    <g id="Icon-/-Alert" stroke="none" stroke-width="1" fill="none" fill-rule="evenodd">
        <rect x="0" y="0" width="40" height="40"></rect>
        <path d="M21.0007341,10.5193414 C24.4762895,11.0162552 27.1183812,13.928578 27.1183812,17.5381712 C27.1183812,19.8561489 27.6863216,22.7224808 28.8309147,26.1256612 C29.0488642,26.7736832 28.5667789,27.4444444 27.8830871,27.4444444 L12.0007341,27.4444444 C11.3218755,27.4444444 10.8403075,26.7824666 11.0493039,26.13658 C12.1963192,22.5918216 12.76544,19.7195326 12.76544,17.5381712 C12.76544,13.8766247 15.4630349,10.9483972 19.0007341,10.5031272 L19.0007341,10 C19.0007341,9.44771525 19.4484494,9 20.0007341,9 C20.5530189,9 21.0007341,9.44771525 21.0007341,10 L21.0007341,10.5193414 Z M14.76544,17.5381712 C14.76544,19.6708 14.2945849,22.3020246 13.3588638,25.4444444 L26.5115062,25.4444444 C25.5847043,22.4130164 25.1183812,19.7801648 25.1183812,17.5381712 C25.1183812,14.6842253 22.8301161,12.4444444 19.9419106,12.4444444 C17.0470515,12.4444444 14.76544,14.6732603 14.76544,17.5381712 Z M18.0007341,29 L22.0007341,29 C22.0007341,30.1045695 21.1053036,31 20.0007341,31 C18.8961646,31 18.0007341,30.1045695 18.0007341,29 Z" id="Combined-Shape" fill="#FFFFFF"></path>
    </g>
</svg>