<?xml version="1.0" encoding="UTF-8"?>
<svg width="40px" height="40px" viewBox="0 0 40 40" version="1.1" xmlns="http://www.w3.org/2000/svg" xmlns:xlink="http://www.w3.org/1999/xlink">
    <!-- Generator: Sketch 64 (93537) - https://sketch.com -->
    <title>Icon / reclamacoes Copy</title>
    <desc>Created with Sketch.</desc>
    <g id="Icon-/-reclamacoes-Copy" stroke="none" stroke-width="1" fill="none" fill-rule="evenodd">
        <rect x="0" y="0" width="40" height="40"></rect>
        <path d="M21.293162,14.2928932 C21.6836863,13.9023689 22.3168512,13.9023689 22.7073755,14.2928932 L22.7073755,14.2928932 L27.7071068,19.2926245 C28.0976311,19.6831488 28.0976311,20.3163137 27.7071068,20.706838 L27.7071068,20.706838 L22.7071068,25.706838 C22.3165825,26.0973623 21.6834175,26.0973623 21.2928932,25.706838 C20.9023689,25.3163137 20.9023689,24.6831488 21.2928932,24.2926245 L21.2928932,24.2926245 L24.584,21 L13,21.0000448 C12.4477153,21.0000448 12,20.5523295 12,20.0000448 C12,19.44776 12.4477153,19.0000448 13,19.0000448 L24.586,19 L21.293162,15.7071068 C20.932678,15.3466228 20.9049485,14.7793918 21.2099734,14.3871006 Z" id="Combined-Shape-Copy" fill="#776E71" transform="translate(20.000000, 19.999866) rotate(-270.000000) translate(-20.000000, -19.999866) "></path>
    </g>
</svg>