<?xml version="1.0" encoding="UTF-8"?>
<svg width="40px" height="40px" viewBox="0 0 40 40" version="1.1" xmlns="http://www.w3.org/2000/svg" xmlns:xlink="http://www.w3.org/1999/xlink">
    <!-- Generator: Sketch 56.3 (81716) - https://sketch.com -->
    <title>Icon / Arrow / Back</title>
    <desc>Created with Sketch.</desc>
    <g id="Icon-/-Arrow-/-Back" stroke="none" stroke-width="1" fill="none" fill-rule="evenodd">
        <rect x="0" y="0" width="40" height="40"></rect>
        <path d="M17.4852814,20.363961 L25.2885822,28.1672619 C25.8743687,28.7530483 25.8743687,29.7027958 25.2885822,30.2885822 C24.7027958,30.8743687 23.7530483,30.8743687 23.1672619,30.2885822 L14.4393398,21.5606602 C14.1118103,21.2331306 13.9674116,20.7918181 14.0061439,20.363961 C13.9674116,19.936104 14.1118103,19.4947915 14.4393398,19.1672619 L23.1672619,10.4393398 C23.7530483,9.85355339 24.7027958,9.85355339 25.2885822,10.4393398 C25.8743687,11.0251263 25.8743687,11.9748737 25.2885822,12.5606602 L17.4852814,20.363961 Z" id="Combined-Shape" fill="#FFFFFF"></path>
    </g>
</svg>