<?xml version="1.0" encoding="UTF-8"?>
<svg width="40px" height="40px" viewBox="0 0 40 40" version="1.1" xmlns="http://www.w3.org/2000/svg" xmlns:xlink="http://www.w3.org/1999/xlink">
    <!-- Generator: Sketch 56.3 (81716) - https://sketch.com -->
    <title>Icon / check</title>
    <desc>Created with Sketch.</desc>
    <g id="Icon-/-check" stroke="none" stroke-width="1" fill="none" fill-rule="evenodd">
        <rect x="0" y="0" width="40" height="40"></rect>
        <path d="M21.5344097,11.8455963 C22.0013482,11.5506609 22.1407843,10.9330401 21.845849,10.4661016 C21.5509136,9.99916311 20.9332928,9.85972701 20.4663543,10.1546624 L14.4661022,14.1244014 C14.0011767,14.4180653 13.8605987,15.0320199 14.1514208,15.4987283 L23.6212972,30.5070829 C23.9133785,30.975812 24.5301372,31.1190134 24.9988663,30.8269321 C25.4675954,30.5348509 25.6107968,29.9180922 25.3187155,29.4493631 L16.3744824,15.2845557 L21.5344097,11.8455963 Z" id="Path-3" fill="#a80766" transform="translate(19.735071, 20.489179) rotate(-105.000000) translate(-19.735071, -20.489179) "></path>
    </g>
</svg>