<?xml version="1.0" encoding="UTF-8"?>
<svg width="40px" height="40px" viewBox="0 0 40 40" version="1.1" xmlns="http://www.w3.org/2000/svg" xmlns:xlink="http://www.w3.org/1999/xlink">
    <!-- Generator: Sketch 58 (84663) - https://sketch.com -->
    <title>Icon / Arrow / Dropdown</title>
    <desc>Created with Sketch.</desc>
    <g id="Icon-/-Arrow-/-Dropdown" stroke="none" stroke-width="1" fill="none" fill-rule="evenodd">
        <rect x="0" y="0" width="40" height="40"></rect>
        <path d="M18.4488765,19.5714286 L24.5815811,13.438724 C25.139473,12.8808321 25.139473,11.9763107 24.5815811,11.4184189 C24.0236893,10.860527 23.1191679,10.860527 22.561276,11.4184189 L15.4184189,18.561276 C14.860527,19.1191679 14.860527,20.0236893 15.4184189,20.5815811 L22.5608921,27.7240543 C23.1187839,28.2819462 24.0233053,28.2819462 24.5811972,27.7240543 C25.139089,27.1661625 25.139089,26.2616411 24.5811972,25.7037492 L18.4488765,19.5714286 Z" id="Path" fill="#aaaaaa" transform="translate(20.000000, 19.571237) rotate(-450.000000) translate(-20.000000, -19.571237) "></path>
    </g>
</svg>