<?xml version="1.0" encoding="UTF-8"?>
<svg width="40px" height="40px" viewBox="0 0 40 40" version="1.1" xmlns="http://www.w3.org/2000/svg" xmlns:xlink="http://www.w3.org/1999/xlink">
    <!-- Generator: Sketch 57.1 (83088) - https://sketch.com -->
    <title>Icon / Arrow / Edit</title>
    <desc>Created with Sketch.</desc>
    <g id="Icon-/-Arrow-/-Edit" stroke="none" stroke-width="1" fill="none" fill-rule="evenodd">
        <rect x="0" y="0" width="40" height="40"></rect>
        <path d="M18.017767,20.5001632 L24.6338835,14.0729552 C25.1220388,13.598738 25.1220388,12.8298801 24.6338835,12.3556629 C24.1457281,11.8814457 23.3542719,11.8814457 22.8661165,12.3556629 L15.3661165,19.641517 C14.8779612,20.1157342 14.8779612,20.8845922 15.3661165,21.3588093 L22.8657806,28.6443371 C23.3539359,29.1185543 24.1453922,29.1185543 24.6335475,28.6443371 C25.1217029,28.1701199 25.1217029,27.401262 24.6335475,26.9270448 L18.017767,20.5001632 Z" id="Path-3" fill="#aea2a8" transform="translate(20.000000, 20.500000) rotate(-180.000000) translate(-20.000000, -20.500000) "></path>
    </g>
</svg>