<?xml version="1.0" encoding="UTF-8"?>
<svg width="40px" height="40px" viewBox="0 0 40 40" version="1.1" xmlns="http://www.w3.org/2000/svg" xmlns:xlink="http://www.w3.org/1999/xlink">
    <!-- Generator: Sketch 57.1 (83088) - https://sketch.com -->
    <title>Icon / Email</title>
    <desc>Created with Sketch.</desc>
    <g id="Icon-/-Email" stroke="none" stroke-width="1" fill="none" fill-rule="evenodd">
        <rect x="0" y="0" width="40" height="40"></rect>
        <path d="M26.5128174,12.5 C28.1696716,12.5 29.5128174,13.8431458 29.5128174,15.5 L29.5128174,25.5 C29.5128174,27.1568542 28.1696716,28.5 26.5128174,28.5 L13.5128174,28.5 C11.8559631,28.5 10.5128174,27.1568542 10.5128174,25.5 L10.5128174,15.5 C10.5128174,13.8431458 11.8559631,12.5 13.5128174,12.5 L26.5128174,12.5 Z M12.5128174,16.661 L12.5128174,25.5 C12.5128174,26.0522847 12.9605326,26.5 13.5128174,26.5 L26.5128174,26.5 C27.0651021,26.5 27.5128174,26.0522847 27.5128174,25.5 L27.5128174,16.682 L20.6230404,21.989007 C20.2988369,22.2387281 19.8597398,22.2633054 19.5129508,22.0629402 L19.4010575,21.9878208 L12.5128174,16.661 Z M13.5128174,14.5 C13.3666244,14.5 13.2277584,14.5313711 13.1025842,14.5877486 L20.0140436,19.9335727 L26.9418215,14.5964387 C26.8118179,14.534604 26.6663587,14.5 26.5128174,14.5 L13.5128174,14.5 Z" id="Combined-Shape" fill="#FFFFFF" fill-rule="nonzero"></path>
    </g>
</svg>