<?xml version="1.0" encoding="UTF-8"?>
<svg width="40px" height="40px" viewBox="0 0 40 40" version="1.1" xmlns="http://www.w3.org/2000/svg" xmlns:xlink="http://www.w3.org/1999/xlink">
    <!-- Generator: Sketch 56.3 (81716) - https://sketch.com -->
    <title>Icon / heart</title>
    <desc>Created with Sketch.</desc>
    <g id="Icon-/-heart" stroke="none" stroke-width="1" fill="none" fill-rule="evenodd">
        <rect x="0" y="0" width="40" height="40"></rect>
        <path d="M19.4221977,27.8117927 L12.3326481,20.7672423 C10.555784,18.9903782 10.555784,16.1095122 12.3326481,14.3326481 C14.1095122,12.555784 16.9903782,12.555784 18.7672423,14.3326481 L19.8252289,15.3906346 L20.8382982,14.3326481 C22.6151623,12.555784 25.4960283,12.555784 27.2728924,14.3326481 C29.0497565,16.1095122 29.0497565,18.9903782 27.2728924,20.7672423 L20.1926004,27.8025938 C20.1009386,27.9159585 19.9607293,27.9884491 19.8035889,27.9884491 C19.6507414,27.9884491 19.5139125,27.9198652 19.4221977,27.8117927 Z" id="Combined-Shape" fill="#A80766"></path>
    </g>
</svg>