<?xml version="1.0" encoding="UTF-8"?>
<svg width="40px" height="40px" viewBox="0 0 40 40" version="1.1" xmlns="http://www.w3.org/2000/svg" xmlns:xlink="http://www.w3.org/1999/xlink">
    <title>Icon / Menu / blog</title>
    <g id="Icon-/-Menu-/-blog" stroke="none" stroke-width="1" fill="none" fill-rule="evenodd">
        <rect x="0" y="0" width="40" height="40"></rect>
        <path d="M15.1608292,8.02933046 C18.9736075,8.95845853 21.3606461,12.1096937 21.1315106,15.7233386 C22.1828132,15.2812161 23.33265,15.0106486 24.5074454,14.9108165 C29.6295059,14.5022015 32.3734668,18.9969661 30.3089629,25.330498 C28.7148522,30.1061853 25.6834287,33.6815662 21.7112185,32.8898748 C21.1101604,32.7621826 20.5352353,32.5323367 20.012576,32.2514139 C19.4637839,32.5323367 18.9149917,32.7621826 18.3139335,32.8898748 C14.3417234,33.6815662 11.3102999,30.1061853 9.7161892,25.330498 C7.59941932,18.9969661 10.3695132,14.52774 15.4654407,14.9108165 C16.6884633,15.0027549 17.8903182,15.3015546 18.9948017,15.7885981 L19.335,15.946 L19.101551,15.837215 C19.3904477,13.0632898 17.6229456,10.6574428 14.6736547,9.93883104 C14.1341217,9.8073707 13.8057943,9.27337348 13.9403007,8.74611131 C14.0748357,8.21885625 14.6212642,7.89799835 15.1608292,8.02933046 Z M20.1907909,21.2306419 L20.1347318,21.2306419 C19.2234619,21.2306419 18.4847318,21.9693721 18.4847318,22.8806419 L18.4847318,25.0468229 C18.4847318,25.9580928 19.2234619,26.6968229 20.1347318,26.6968229 L20.1907909,26.6968229 C21.1020608,26.6968229 21.8407909,25.9580928 21.8407909,25.0468229 L21.8407909,22.8806419 C21.8407909,21.9693721 21.1020608,21.2306419 20.1907909,21.2306419 Z M26.3784911,8.78347507 C26.430757,9.54962812 26.4046241,10.7499346 25.7513,11.6948567 C25.097976,12.6653172 23.9742587,13.1505475 23.2164028,13.3803934 C22.7721424,13.5080855 22.354015,13.2527012 22.3017491,12.7930094 C22.2233502,12.0268563 22.2756162,10.8265499 22.9289402,9.88162778 C23.5822642,8.91116724 24.7059816,8.42593698 25.4638375,8.19609106 C25.9342308,8.04286045 26.3523582,8.32378324 26.3784911,8.78347507 Z" id="Combined-Shape-Copy" fill="#a80766"></path>
    </g>
</svg>