<?xml version="1.0" encoding="UTF-8"?>
<svg width="40px" height="40px" viewBox="0 0 40 40" version="1.1" xmlns="http://www.w3.org/2000/svg" xmlns:xlink="http://www.w3.org/1999/xlink" >
    <title>Icon / Menu / actividade</title>
    <g id="Icon-/-Menu-/-actividade" stroke="none" stroke-width="1" fill="none" fill-rule="evenodd">
        <rect x="0" y="0" width="40" height="40"></rect>
        <path d="M29.6177778,13 C30.8107128,13 31.7777778,13.9670649 31.7777778,15.16 L31.7770635,17.3802587 C31.9478371,17.3190554 32.1318768,17.2857143 32.3237037,17.2857143 L33.38,17.2857143 C34.2747013,17.2857143 35,18.011013 35,18.9057143 L35,23.1657143 C35,24.0604156 34.2747013,24.7857143 33.38,24.7857143 L32.3237037,24.7857143 C32.1318768,24.7857143 31.9478371,24.7523732 31.7770635,24.6911698 L31.7777778,25.84 C31.7777778,27.0329351 30.8107128,28 29.6177778,28 L28.5674074,28 C27.3744723,28 26.4074074,27.0329351 26.4074074,25.84 L26.407,21.994 L18.1694866,21.9947946 C17.380412,21.9947946 16.7407407,21.3551233 16.7407407,20.5660488 C16.7407407,19.7769742 17.380412,19.1373029 18.1694866,19.1373029 L26.407,19.137 L26.4074074,15.16 C26.4074074,13.9670649 27.3744723,13 28.5674074,13 L29.6177778,13 Z M12.4325926,13 C13.6255277,13 14.5925926,13.9670649 14.5925926,15.16 L14.5925926,25.84 C14.5925926,27.0329351 13.6255277,28 12.4325926,28 L11.3822222,28 C10.1892872,28 9.22222222,27.0329351 9.22222222,25.84 L9.22293649,24.6911698 C9.05216287,24.7523732 8.8681232,24.7857143 8.6762963,24.7857143 L7.62,24.7857143 C6.72529871,24.7857143 6,24.0604156 6,23.1657143 L6,18.9057143 C6,18.011013 6.72529871,17.2857143 7.62,17.2857143 L8.6762963,17.2857143 C8.8681232,17.2857143 9.05216287,17.3190554 9.22293649,17.3802587 L9.22222222,15.16 C9.22222222,13.9670649 10.1892872,13 11.3822222,13 L12.4325926,13 Z" id="Combined-Shape" fill="#a80766"></path>
    </g>
</svg>