<?xml version="1.0" encoding="UTF-8"?>
<svg width="40px" height="40px" viewBox="0 0 40 40" version="1.1" xmlns="http://www.w3.org/2000/svg" xmlns:xlink="http://www.w3.org/1999/xlink">
    <title>Icon / Menu / Home</title>
    <g id="Icon-/-Menu-/-Home" stroke="none" stroke-width="1" fill="none" fill-rule="evenodd">
        <rect x="0" y="0" width="40" height="40"></rect>
        <path d="M20.6308153,9.18535738 L20.7305273,9.26420344 L31.6053634,18.9241751 C31.8403674,19.1329259 31.9748399,19.4322406 31.9748399,19.7465712 C31.9748399,20.3135836 31.5458292,20.7803951 30.994697,20.8401166 L30.8748399,20.8465712 L27.9233143,20.8458058 C27.9443087,20.9678572 27.9552477,21.0933471 27.9552477,21.2213919 L27.9552477,30.8 C27.9552477,32.0150264 26.9702741,33 25.7552477,33 L22.235,32.999 L22.2367171,32.9805563 L22.2367171,29.7486093 C22.2367171,28.5335828 21.2517436,27.5486093 20.0367171,27.5486093 L20.0367171,27.5486093 L19.96329,27.5486093 C18.7482636,27.5486093 17.76329,28.5335828 17.76329,29.7486093 L17.76329,29.7486093 L17.76329,32.9805563 C17.76329,32.9869494 17.7633173,32.9933361 17.7633717,32.9997164 L14.2447598,33 C13.0297334,33 12.0447598,32.0150264 12.0447598,30.8 L12.0447598,21.2213919 C12.0447598,21.0933471 12.0556988,20.9678572 12.0766933,20.8458058 L9.1251676,20.8465712 C8.81083694,20.8465712 8.5115223,20.7120987 8.30277145,20.4770947 C7.92813282,20.0553405 7.93683945,19.4257258 8.3036501,19.0149024 L8.39464409,18.9241751 L19.2694803,9.26420344 C19.6541154,8.92253716 20.2185228,8.89625513 20.6308153,9.18535738 Z" id="Combined-Shape" fill="#a80766"></path>
    </g>
</svg>