<?xml version="1.0" encoding="UTF-8"?>
<svg width="40px" height="40px" viewBox="0 0 40 40" version="1.1" xmlns="http://www.w3.org/2000/svg" xmlns:xlink="http://www.w3.org/1999/xlink">
    <!-- Generator: Sketch 58 (84663) - https://sketch.com -->
    <title>Icon / Timer</title>
    <desc>Created with Sketch.</desc>
    <g id="Icon-/-Timer" stroke="none" stroke-width="1" fill="none" fill-rule="evenodd">
        <rect x="0" y="0" width="40" height="40"></rect>
        <path d="M23.5368731,6 C24.1996148,6 24.7368731,6.5372583 24.7368731,7.2 L24.7368731,7.23478261 C24.7368731,7.89752431 24.1996148,8.43478261 23.5368731,8.43478261 L21.71,8.434 L21.7102286,10.9330777 C27.0595723,11.4975058 31.3657832,15.761356 31.9362332,21.2114624 C32.0062195,21.880115 31.5239636,22.479222 30.8590845,22.5496055 C30.1942054,22.619989 29.5984793,22.1349962 29.528493,21.4663436 C29.044972,16.84676 25.1559307,13.3043478 20.4999509,13.3043478 C15.4858081,13.3043478 11.4210423,17.3921827 11.4210423,22.4347826 C11.4210423,27.266778 15.1652894,31.2549816 19.9369167,31.5479859 C20.1237249,31.5594569 20.3114551,31.5652174 20.4999509,31.5652174 C21.1685033,31.5652174 21.7104721,32.110262 21.7104721,32.7826087 C21.7104721,33.4549553 21.1685033,34 20.4999509,34 C20.2622284,34 20.0252915,33.9927296 19.7893651,33.9782424 C13.7421903,33.6069125 9,28.5557447 9,22.4347826 C9,16.458546 13.507334,11.5410283 19.2897336,10.9328423 L19.289,8.434 L17.4632251,8.43478261 C16.8004834,8.43478261 16.2632251,7.89752431 16.2632251,7.23478261 L16.2632251,7.2 C16.2632251,6.5372583 16.8004834,6 17.4632251,6 L23.5368731,6 Z M20.6536138,16.5861921 C21.2725685,16.5878564 21.781268,17.0579729 21.8439029,17.6607342 L21.8503829,17.7829556 L21.8635201,22.6602979 C21.8618495,23.2876711 21.3882774,23.7978102 20.7830071,23.8576586 L20.6602979,23.8635257 L20.6302885,23.8634451 C20.0113337,23.8617808 19.5026343,23.3916642 19.4399994,22.788903 L19.4335194,22.6666816 L19.4203822,17.7893393 C19.4220528,17.1619661 19.8956248,16.6518269 20.5008952,16.5919785 L20.6236044,16.5861114 L20.6536138,16.5861921 Z" id="Combined-Shape" fill="#FFFFFF"></path>
        <path d="M25,25.0950152 L25,31.3586342 C25,31.9109189 25.4477153,32.3586342 26,32.3586342 C26.184995,32.3586342 26.366364,32.3073178 26.523935,32.2103925 L31.6153011,29.0785829 C32.0857142,28.7892217 32.2324857,28.1733028 31.9431244,27.7028897 C31.8610389,27.5694438 31.748747,27.4571519 31.6153011,27.3750664 L26.523935,24.2432569 C26.0535218,23.9538956 25.437603,24.1006671 25.1482417,24.5710802 C25.0513164,24.7286512 25,24.9100202 25,25.0950152 Z" id="Path-7" fill="#FFFFFF"></path>
    </g>
</svg>