<?xml version="1.0" encoding="UTF-8"?>
<svg width="40px" height="40px" viewBox="0 0 40 40" version="1.1" xmlns="http://www.w3.org/2000/svg" xmlns:xlink="http://www.w3.org/1999/xlink">
    <!-- Generator: sketchtool 58 (101010) - https://sketch.com -->
    <title>73514B67-41F4-4509-A570-61C2C29CBEF2</title>
    <desc>Created with sketchtool.</desc>
    <g id="Asset-Artboard-Page" stroke="none" stroke-width="1" fill="none" fill-rule="evenodd">
        <g id="Icon-/-Vista-Mês-Icon-/-Vista-Semana">
            <rect x="0" y="0" width="40" height="40"></rect>
            <path d="M12,13 C12.5522847,13 13,13.4477153 13,14 L13,26 C13,26.5522847 12.5522847,27 12,27 C11.4477153,27 11,26.5522847 11,26 L11,14 C11,13.4477153 11.4477153,13 12,13 Z M22,13 C23.1045695,13 24,13.8954305 24,15 L24,25 C24,26.1045695 23.1045695,27 22,27 L18,27 C16.8954305,27 16,26.1045695 16,25 L16,15 C16,13.8954305 16.8954305,13 18,13 L22,13 Z M28,13 C28.5522847,13 29,13.4477153 29,14 L29,26 C29,26.5522847 28.5522847,27 28,27 C27.4477153,27 27,26.5522847 27,26 L27,14 C27,13.4477153 27.4477153,13 28,13 Z" id="Combined-Shape" fill="#A80766"></path>
        </g>
    </g>
</svg>