<?xml version="1.0" encoding="UTF-8"?>
<svg width="110px" height="110px" viewBox="0 0 110 110" version="1.1" xmlns="http://www.w3.org/2000/svg" xmlns:xlink="http://www.w3.org/1999/xlink">
    <title>Desafio / Cinza / weight man / no Background</title>
    <defs>
        <path d="M4.497792,11.24448 C4.497792,11.8654955 3.99435948,12.368928 3.373344,12.368928 L3.373344,12.368928 L1.124448,12.368928 C0.503432518,12.368928 -1.27828564e-16,11.8654955 -1.23097366e-15,11.24448 L-1.23097366e-15,11.24448 L-3.08999338e-15,1.124448 C-3.08999338e-15,0.503432518 0.503432518,-4.01046582e-15 1.124448,-4.04849205e-15 L1.124448,-4.04849205e-15 L3.373344,-4.46160755e-15 C3.99435948,-4.49963378e-15 4.497792,0.503432518 4.497792,1.124448 L4.497792,1.124448 L4.497,5.341 L44.134,5.341 L44.134584,1.124448 C44.134584,0.503432518 44.6380165,-4.49963378e-15 45.259032,-4.46160755e-15 L47.507928,-4.04849205e-15 C48.1289435,-4.01046582e-15 48.632376,0.503432518 48.632376,1.124448 L48.632376,11.24448 C48.632376,11.8654955 48.1289435,12.368928 47.507928,12.368928 L45.259032,12.368928 C44.6380165,12.368928 44.134584,11.8654955 44.134584,11.24448 L44.134,7.59 L4.497,7.59 Z" id="path-1"></path>
        <path d="M23.1417081,37.9808666 L23.1417081,27.5333282 C23.1417081,26.1392981 22.6252112,25.0527376 21.5922174,24.2736465 L21.5922174,24.2736465 L13.3896668,17.1517848 C12.910703,16.7359247 12.663529,16.1466686 12.6675951,15.5531345 L12.6675951,15.5531345 L12.65004,15.5531254 L12.65004,6.53290287 C12.65004,5.36781658 13.5945291,4.42332752 14.7596154,4.42332752 C15.9247017,4.42332752 16.8691907,5.36781658 16.8691907,6.53290287 L16.8691907,6.53290287 L16.8700317,14.8683275 L24.6943706,20.9610504 C25.046124,21.2349122 25.30855,21.6071371 25.4483125,22.0304541 C25.9420832,23.5259157 26.9205111,24.2736465 28.3835959,24.2736465 L28.37704,24.2733275 L28.5775751,24.2685599 C29.9270294,24.2007385 30.8368855,23.4547032 31.3071434,22.0304541 C31.4469059,21.6071371 31.7093319,21.2349122 32.0610853,20.9610504 L39.8854242,14.8683275 L39.8862652,6.53290287 C39.8862652,5.36781658 40.8307542,4.42332752 41.9958405,4.42332752 C43.1609268,4.42332752 44.1054159,5.36781658 44.1054159,6.53290287 L44.1054159,15.5531254 L44.0878608,15.5531345 C44.0919268,16.1466686 43.8447529,16.7359247 43.3657891,17.1517848 L35.1632385,24.2736465 C34.1302447,25.0527376 33.6137478,26.1392981 33.6137478,27.5333282 L33.6137478,37.9808666 L23.1417081,37.9808666 Z" id="path-3"></path>
        <path d="M20.9290785,0.300877687 L29.5911559,6.20546504 C30.8222105,6.94471091 31.4377378,7.92517136 31.4377378,9.14684641 L31.4377378,19.1434801 L31.4377378,19.1434801 L27.2107631,19.1434801 L27.2107631,10.4019676 C27.2107631,10.1425113 27.1533648,9.93318717 27.0385683,9.77399521 C26.9237717,9.61480324 26.7308275,9.4769696 26.4597356,9.36049428 L17.0550431,5.14978516 L16.8742905,5.09982046 C16.487481,5.00959472 16.0945394,4.96448184 15.6954658,4.96448184 L15.719,4.96487769 L15.4631009,4.97189398 C15.1596186,4.98806756 14.859734,5.03070972 14.5634472,5.09982046 L14.3826947,5.14978516 L4.97800212,9.36049428 C4.70691023,9.4769696 4.51396601,9.61480324 4.39916946,9.77399521 C4.2843729,9.93318717 4.22697463,10.1425113 4.22697463,10.4019676 L4.22697463,10.4019676 L4.22697463,19.1434801 L-6.93346465e-13,19.1434801 L-6.93346465e-13,19.1434801 L-6.93346465e-13,9.14684641 C-6.93346465e-13,7.92517136 0.615527301,6.94471091 1.8465819,6.20546504 L1.8465819,6.20546504 L10.5086593,0.300877688 L20.9290785,0.300877687 Z" id="path-5"></path>
        <path d="M4.21668,6.465576 C6.54548806,6.465576 8.43336,4.57770406 8.43336,2.248896 C8.43336,1.08861807 8.43336,0.476385055 8.43336,0.412196941 L0,0.412196941 C0,0.585353227 0,1.19758625 0,2.248896 C0,4.57770406 1.88787194,6.465576 4.21668,6.465576 Z" id="path-7"></path>
        <path d="M3.17040255,0.0529143926 L7.871136,0.0529143926 C8.18164374,0.0529143926 8.43336,0.304630651 8.43336,0.615138393 L8.43336,3.22331694 L8.43336,3.22331694 L0,3.22331694 C-2.14431366e-16,1.47235196 1.41943757,0.0529143926 3.17040255,0.0529143926 Z" id="path-9"></path>
    </defs>
    <g id="Desafio-/-Cinza-/-weight-man-/-no-Background" stroke="none" stroke-width="1" fill="none" fill-rule="evenodd">
        <g id="Group-4" transform="translate(27.000000, 25.000000)">
            <g id="Rectangle" transform="translate(4.216680, 0.000000)">
                <mask id="mask-2" fill="white">
                    <use xlink:href="#path-1"></use>
                </mask>
                <use id="Mask" fill="#2C2728" xlink:href="#path-1"></use>
                <rect fill="#1F1417" mask="url(#mask-2)" x="24.175632" y="-0.562224" width="24.737856" height="13.493376"></rect>
            </g>
            <path d="M52.00572,4.778904 L57.62796,4.778904 C58.2489755,4.778904 58.752408,5.28233652 58.752408,5.903352 L58.752408,8.714472 L58.752408,8.714472 L50.881272,8.714472 L50.881272,5.903352 C50.881272,5.28233652 51.3847045,4.778904 52.00572,4.778904 Z" id="Rectangle-Copy" fill="#2C2728" transform="translate(54.816840, 6.746688) rotate(-270.000000) translate(-54.816840, -6.746688) "></path>
            <path d="M-0.562224,4.778904 L5.060016,4.778904 C5.68103148,4.778904 6.184464,5.28233652 6.184464,5.903352 L6.184464,8.714472 L6.184464,8.714472 L-1.686672,8.714472 L-1.686672,5.903352 C-1.686672,5.28233652 -1.18323948,4.778904 -0.562224,4.778904 Z" id="Rectangle-Copy" fill="#544C4F" transform="translate(2.248896, 6.746688) scale(-1, 1) rotate(-270.000000) translate(-2.248896, -6.746688) "></path>
            <mask id="mask-4" fill="white">
                <use xlink:href="#path-3"></use>
            </mask>
            <use id="Combined-Shape" fill="#FFD7CD" xlink:href="#path-3"></use>
            <path d="M32.890104,1.686672 L50.881272,1.686672 L50.881272,29.797872 L42.975546,26.5212871 C39.8229206,32.8527748 37.1502519,33.3188276 34.95754,27.9194454 C32.7648281,22.5200632 32.0756828,13.7758054 32.890104,1.686672 Z" id="Rectangle" fill="#FAB9AF" mask="url(#mask-4)"></path>
            <polygon id="Rectangle" fill="#7E1AC7" mask="url(#mask-4)" points="23.6386642 17.8517101 28.392312 18.6122773 28.392312 37.9871807 22.770072 37.9871807 19.2815654 23.4514392"></polygon>
            <polygon id="Rectangle" fill="#6615A2" mask="url(#mask-4)" transform="translate(32.899232, 27.919445) scale(-1, 1) translate(-32.899232, -27.919445) " points="32.7009574 17.8517101 37.4546052 18.6122773 37.4546052 37.9871807 31.8323652 37.9871807 28.3438586 23.4514392"></polygon>
            <rect id="Rectangle" fill="#1F1417" mask="url(#mask-4)" x="28.392312" y="10.120032" width="4.497792" height="4.497792"></rect>
            <g id="Rectangle" transform="translate(12.650040, 37.686303)">
                <mask id="mask-6" fill="white">
                    <use xlink:href="#path-5"></use>
                </mask>
                <use id="Mask" fill="#FFD7CD" xlink:href="#path-5"></use>
                <rect fill="#FAB9AF" mask="url(#mask-6)" x="20.802288" y="2.23160102" width="11.806704" height="17.428944"></rect>
                <polygon fill="#2C2728" mask="url(#mask-6)" points="12.3519469 -1.686672 15.742272 -1.42285498 15.742272 8.43336 10.2346455 8.43336 5.7036362 2.09282943"></polygon>
                <polygon fill="#1F1417" mask="url(#mask-6)" transform="translate(20.729298, 3.373344) scale(-1, 1) translate(-20.729298, -3.373344) " points="22.3582912 -1.686672 25.7486163 -1.42285498 25.7486163 8.43336 20.2409898 8.43336 15.7099805 2.09282943"></polygon>
            </g>
            <path d="M39.8758333,56.8297831 L43.9439275,56.8297831 C45.1859584,56.8297831 46.1928235,57.8366481 46.1928235,59.0786791 L46.1928235,61.001304 L46.1928235,61.001304 L39.8758333,61.001304 L39.8758333,56.8297831 Z" id="Rectangle" fill="#C5C5C5"></path>
            <path d="M10.5600244,56.8297831 L14.6281186,56.8297831 C15.8701496,56.8297831 16.8770146,57.8366481 16.8770146,59.0786791 L16.8770146,61.001304 L16.8770146,61.001304 L10.5600244,61.001304 L10.5600244,56.8297831 Z" id="Rectangle-Copy-2" fill="#E8E0E4" transform="translate(13.718520, 58.915544) scale(-1, 1) translate(-13.718520, -58.915544) "></path>
            <g id="Rectangle" transform="translate(24.175632, 13.493376)">
                <mask id="mask-8" fill="white">
                    <use xlink:href="#path-7"></use>
                </mask>
                <use id="Mask" fill="#FFD7CD" xlink:href="#path-7"></use>
                <rect fill="#FAB9AF" mask="url(#mask-8)" x="4.21668" y="-1.124448" width="4.497792" height="8.43336"></rect>
            </g>
            <g id="Rectangle" transform="translate(24.175632, 10.682256)">
                <mask id="mask-10" fill="white">
                    <use xlink:href="#path-9"></use>
                </mask>
                <use id="Mask" fill="#2C2728" xlink:href="#path-9"></use>
                <rect fill="#1F1417" mask="url(#mask-10)" x="4.21668" y="-0.562224" width="4.497792" height="4.497792"></rect>
            </g>
        </g>
    </g>
</svg>