<?xml version="1.0" encoding="UTF-8"?>
<svg width="110px" height="110px" viewBox="0 0 110 110" version="1.1" xmlns="http://www.w3.org/2000/svg" xmlns:xlink="http://www.w3.org/1999/xlink">
    <title>Desafio / Cinza / strong arm / no Background</title>
    <defs>
        <path d="M30.2377352,58.5640013 C28.1371742,58.5640013 25.9073826,58.3018718 23.7002633,57.5965054 C23.4021265,57.5011856 23.1147588,57.3617804 22.8228567,57.1711408 C21.9896607,56.625435 18.9193046,54.9084873 14.4279809,55.6936841 C10.4139028,56.2048364 2.39934979,54.8965724 0.37020551,46.3654513 C0.332229956,46.2391526 -0.884689859,41.8711231 1.31166048,37.9439478 C2.78477389,35.3095448 5.39432133,33.5461287 9.06775202,32.7049316 C9.25196204,32.6393993 15.8455473,30.6138538 21.9012392,36.4664888 C22.2339509,36.7881954 22.6970266,36.9037706 23.1130578,36.7703229 C25.3082745,36.0601881 29.649963,35.3369492 34.081206,38.4324617 L34.1911652,38.3585889 L35.0476002,25.8383322 C35.0600698,25.6607991 35.0402317,25.485649 34.9897865,25.3164563 L31.5300389,17.7683206 C31.5011321,17.7063627 31.4778932,17.6408304 31.4597556,17.5741065 C31.3872052,17.3262751 31.1678536,16.9199745 30.9813763,16.8449101 C30.8821863,16.8079737 30.6719035,16.8723145 30.4344143,17.0224432 C30.1056703,17.2297637 29.5989509,17.5145315 28.9794385,17.6074684 C28.0923963,17.7409161 26.616449,17.7373416 24.6196123,16.9545278 C24.5425274,16.9247403 24.4609082,16.8973359 24.376455,16.8842294 C24.2766982,16.8687399 24.1395325,16.8389525 23.9808286,16.8032075 C23.4905465,16.6947812 22.6692532,16.5124821 22.2039104,16.7960585 C19.5116101,18.4486654 15.5723496,17.2964875 14.4092758,16.1443094 C13.8237713,15.5557097 13.6038528,14.7502575 13.7659577,13.8542515 C13.9875766,12.6270092 14.9086266,11.4092989 15.9555064,10.9589129 C16.3125905,10.8064013 16.7291885,10.6276766 17.1627906,10.4441861 C15.8132403,9.15379476 14.4523533,7.28671844 15.5003666,5.63530313 C15.5876538,5.49708937 15.7010139,5.37913124 15.8336451,5.28976893 C15.8483818,5.2790454 17.5595513,4.08278211 18.651775,2.13945021 C19.3755788,0.903867458 21.600269,-0.960825898 24.9517578,0.58692919 C26.1885156,0.906250544 33.3182936,2.83290146 35.8898656,5.43274861 C36.8148833,6.47769178 39.6216773,9.81507593 39.8075877,11.9681116 C40.6696906,14.8705993 42.4114673,19.7688449 43.5671725,21.0103851 C43.7343786,21.1903011 43.8743781,21.3571108 44.0036086,21.5656228 C45.3780987,23.7758504 49.8807586,31.2274749 50.4997042,34.9199252 C50.8080434,35.9017191 53.1466605,43.559475 53.2400012,50.334329 C53.2554862,51.4674429 52.7805077,52.5350246 51.9359756,53.2630295 C50.378409,54.6070385 46.9294306,56.8029681 41.3912271,56.4598169 C41.2041831,56.4514765 41.0233739,56.4717318 40.8714714,56.5324982 C39.3541475,57.1246725 35.1513251,58.5640013 30.2377352,58.5640013 Z" id="path-1"></path>
    </defs>
    <g id="Desafio-/-Cinza-/-strong-arm-/-no-Background" stroke="none" stroke-width="1" fill="none" fill-rule="evenodd">
        <g id="Group-2-Copy-4" transform="translate(27.000000, 25.000000)">
            <g id="Rectangle" transform="translate(0.880000, 0.330000)">
                <g id="Group-2">
                    <mask id="mask-2" fill="white">
                        <use xlink:href="#path-1"></use>
                    </mask>
                    <use id="Mask" fill="#FFD7CD" xlink:href="#path-1"></use>
                    <rect id="Rectangle" fill="#FAB9AF" fill-rule="nonzero" mask="url(#mask-2)" x="26.6200006" y="-7.98600017" width="33.2750007" height="70.5430015"></rect>
                </g>
                <rect fill="#6615A2" transform="translate(37.510000, 19.360000) rotate(-26.000000) translate(-37.510000, -19.360000) " x="31.46" y="15.73" width="12.1" height="7.26" rx="1.21"></rect>
            </g>
        </g>
    </g>
</svg>