<?xml version="1.0" encoding="UTF-8"?>
<svg width="110px" height="110px" viewBox="0 0 110 110" version="1.1" xmlns="http://www.w3.org/2000/svg" xmlns:xlink="http://www.w3.org/1999/xlink">
    <title>Desafio / Cinza /  Hand Height  / no Background</title>
    <g id="Desafio-/-Cinza-/--Hand-Height--/-no-Background" stroke="none" stroke-width="1" fill="none" fill-rule="evenodd">
        <g id="Group-2-Copy-4" transform="translate(27.000000, 26.000000)" fill-rule="nonzero">
            <g id="exercise-(1)">
                <path d="M35.4046896,15.8408481 L33.7662432,15.8408481 L33.7662432,9.80424163 L29.4056012,9.80424163 L29.4056012,14.8653788 L27.7671548,14.8653788 L27.7671548,9.80424163 L23.4065128,9.80424163 L23.4065128,14.7506084 L21.7680664,14.7506084 L21.7680664,9.80424163 L17.4074244,9.80424163 L17.4074244,20.8810891 L15.1452603,16.9925097 C14.5110945,15.9025866 13.1135868,15.5329468 12.0235054,16.1671126 C10.9335824,16.8012784 10.5639425,18.1989444 11.1981084,19.2888675 C11.1981084,19.2888675 18.3344527,31.5482459 18.3537658,31.5781653 C18.9798581,32.6326283 19.8839322,33.5028253 20.9648319,34.087442 L20.9648319,56.0301489 C22.8519287,58.212298 25.7737908,58.5562744 28.1250802,58.5562744 C30.9523896,58.5562744 35.6350098,57.2216797 36.1123085,55.7757544 L36.1123085,33.0602074 C38.3306224,31.3893086 39.7653316,28.733759 39.7653316,25.7427633 L39.7653316,9.80424163 L35.4046896,9.80424163 L35.4046896,15.8408481 Z" id="Path" fill="#FFD7CD"></path>
                <path d="M35.4046896,10.1482181 L35.4046896,15.8408481 L33.7662432,15.8408481 L33.7662432,9.80424163 L29.4056012,9.80424163 L29.4056012,14.8653788 L27.8539054,14.8653788 L27.8539054,47.306048 C27.8564383,47.306048 27.8589711,58.5562744 27.861504,58.5562744 C30.6888134,58.5562744 33.4997559,57.949585 36.1123085,56.1977539 L36.1123085,33.0602074 C38.3306224,31.3893086 39.7653316,28.733759 39.7653316,25.7427633 L39.7653316,9.80424163 L35.4046896,10.1482181 Z" id="Path" fill="#FAB9AF"></path>
                <rect id="Rectangle" fill="#2C2728" x="13.45584" y="9.49824" width="29.3384803" height="11.714496"></rect>
                <rect id="Rectangle" fill="#1F1417" x="27.8535888" y="9.49824" width="14.9407315" height="11.714496"></rect>
                <g id="Group" transform="translate(29.286240, 6.807072)" fill="#FAB9AF">
                    <path d="M6.1184496,6.87672576 C6.1184496,8.08078598 7.09455206,9.05704675 8.29877059,9.05704675 L8.29877059,9.05704675 C9.50298912,9.05704675 10.4790916,8.08078598 10.4790916,6.87672576 L10.4790916,2.6042591 C10.4790916,1.66045066 9.71400835,0.895367424 8.7701999,0.895367424 L7.82734128,0.895367424 C6.88353283,0.895367424 6.1184496,1.66045066 6.1184496,2.6042591 L6.1184496,6.87672576 Z" id="Path"></path>
                    <path d="M0.119202912,9.12448426 C0.119202912,10.3285445 1.09530538,11.3048052 2.2995239,11.3048052 L2.2995239,11.3048052 C3.50374243,11.3048052 4.4798449,10.3285445 4.4798449,9.12448426 L4.4798449,1.75812422 C4.4798449,0.814315776 3.71476166,0.049232544 2.77095322,0.049232544 L1.82809459,0.049232544 C0.884286144,0.049232544 0.119202912,0.814315776 0.119202912,1.75812422 L0.119202912,9.12448426 Z" id="Path"></path>
                </g>
                <g id="Group" transform="translate(17.255136, 6.807072)" fill="#FFD7CD">
                    <path d="M0.152130144,4.40955792 C0.152130144,5.64638707 1.18205597,6.64275245 2.43107453,6.58766266 C3.60774816,6.53589725 4.51277213,5.51895235 4.51277213,4.34117059 L4.51277213,2.6042591 C4.51277213,1.66045066 3.7476889,0.895367424 2.80388045,0.895367424 L1.86102182,0.895367424 C0.917213376,0.895367424 0.152130144,1.66045066 0.152130144,2.6042591 L0.152130144,4.40955792 L0.152130144,4.40955792 Z" id="Path"></path>
                    <path d="M6.15121853,8.0258545 C6.15121853,9.23007302 7.12732099,10.2061755 8.33153952,10.2061755 L8.33153952,10.2061755 C9.53575805,10.2061755 10.5118605,9.23007302 10.5118605,8.0258545 L10.5118605,1.75068394 C10.5118605,0.810991392 9.75010166,0.04907424 8.81025082,0.04907424 L7.85266992,0.04907424 C6.91297738,0.04907424 6.15106022,0.810833088 6.15106022,1.75068394 L6.15121853,8.0258545 L6.15121853,8.0258545 Z" id="Path"></path>
                </g>
                <path d="M3.11224032,0.73927968 L8.07302909,0.73927968 L8.07302909,0.73927968 L8.07302909,30.9231034 L3.11224032,30.9231034 C1.42224899,30.9231034 0.05224032,29.5530947 0.05224032,27.8631034 L0.05224032,3.79927968 C0.05224032,2.10928835 1.42224899,0.73927968 3.11224032,0.73927968 Z" id="Rectangle" fill="#544C4F"></path>
                <g id="Group" transform="translate(7.440288, 0.633216)">
                    <path d="M0,0.10606368 L4.96078877,0.10606368 C6.6507801,0.10606368 8.02078877,1.47607235 8.02078877,3.16606368 L8.02078877,27.2298874 C8.02078877,28.9198787 6.6507801,30.2898874 4.96078877,30.2898874 L0,30.2898874 L0,30.2898874 L0,0.10606368 Z" id="Rectangle" fill="#2C2728"></path>
                    <path d="M40.209216,0.10606368 L44.1500048,0.10606368 C46.4033265,0.10606368 48.2300048,1.9327419 48.2300048,4.18606368 L48.2300048,26.2098874 C48.2300048,28.4632091 46.4033265,30.2898874 44.1500048,30.2898874 L40.209216,30.2898874 L40.209216,30.2898874 L40.209216,0.10606368 Z" id="Rectangle" fill="#544C4F"></path>
                </g>
                <path d="M43.3214563,0.73927968 L48.2822451,0.73927968 L48.2822451,0.73927968 L48.2822451,30.9231034 L43.3214563,30.9231034 C41.631465,30.9231034 40.2614563,29.5530947 40.2614563,27.8631034 L40.2614563,3.79927968 C40.2614563,2.10928835 41.631465,0.73927968 43.3214563,0.73927968 Z" id="Rectangle" fill="#1F1417"></path>
            </g>
        </g>
    </g>
</svg>